PHYS/PHYS 3200Y/Lab 2/Lab 2B/real data/SDS00001.csv

Record Length,Analog:7000,
Sample Interval,Analog:2.000000E-03,
Vertical Units,CH1:V, CH2:V,,
Vertical Scale,CH1:+1.000000E-01, CH2:+5.000000E+00,,
Vertical Offset,CH1:+2.000000E-03, CH2:+0.000000E+00,,
Horizontal Units,us,
Horizontal Scale,+1.000000E+06,
Model Number,SDS1202X-E,
Serial Number,SDS1EEFX803349,
Software Version,1.3.27,
Source,CH1,CH2
Second,Value,Value
-7.000000E+00,+2.100000E-01,+9.400001E+00
-6.998000E+00,+2.100000E-01,+9.400001E+00
-6.996000E+00,+2.020000E-01,+9.200000E+00
-6.994000E+00,+2.020000E-01,+9.200000E+00
-6.992000E+00,+2.020000E-01,+9.000000E+00
-6.990000E+00,+1.980000E-01,+9.000000E+00
-6.988000E+00,+1.940000E-01,+8.800000E+00
-6.986000E+00,+1.940000E-01,+8.600000E+00
-6.984000E+00,+1.980000E-01,+8.600000E+00
-6.982000E+00,+1.940000E-01,+8.400001E+00
-6.980000E+00,+1.940000E-01,+8.400001E+00
-6.978000E+00,+1.940000E-01,+8.200000E+00
-6.976000E+00,+1.900000E-01,+8.400001E+00
-6.974000E+00,+1.860000E-01,+8.000000E+00
-6.972000E+00,+1.860000E-01,+7.800000E+00
-6.970000E+00,+1.860000E-01,+7.800000E+00
-6.968000E+00,+1.780000E-01,+7.600000E+00
-6.966000E+00,+1.780000E-01,+7.400000E+00
-6.964000E+00,+1.740000E-01,+7.400000E+00
-6.962000E+00,+1.740000E-01,+7.200000E+00
-6.960000E+00,+1.700000E-01,+7.000000E+00
-6.958000E+00,+1.660000E-01,+7.000000E+00
-6.956000E+00,+1.660000E-01,+6.800000E+00
-6.954000E+00,+1.620000E-01,+6.600000E+00
-6.952000E+00,+1.620000E-01,+6.600000E+00
-6.950000E+00,+1.620000E-01,+6.400000E+00
-6.948000E+00,+1.580000E-01,+6.200000E+00
-6.946000E+00,+1.540000E-01,+6.200000E+00
-6.944000E+00,+1.500000E-01,+6.000000E+00
-6.942000E+00,+1.420000E-01,+5.800000E+00
-6.940000E+00,+1.420000E-01,+5.600000E+00
-6.938000E+00,+1.380000E-01,+5.400000E+00
-6.936000E+00,+1.380000E-01,+5.400000E+00
-6.934000E+00,+1.340000E-01,+5.200000E+00
-6.932000E+00,+1.340000E-01,+5.000000E+00
-6.930000E+00,+1.300000E-01,+5.200000E+00
-6.928000E+00,+1.260000E-01,+4.800000E+00
-6.926000E+00,+1.180000E-01,+4.600000E+00
-6.924000E+00,+1.180000E-01,+4.600000E+00
-6.922000E+00,+1.180000E-01,+4.400000E+00
-6.920000E+00,+1.100000E-01,+4.400000E+00
-6.918000E+00,+1.060000E-01,+4.200000E+00
-6.916000E+00,+1.020000E-01,+4.000000E+00
-6.914000E+00,+9.400000E-02,+4.000000E+00
-6.912000E+00,+9.400000E-02,+3.600000E+00
-6.910000E+00,+9.400000E-02,+3.400000E+00
-6.908000E+00,+8.600001E-02,+3.200000E+00
-6.906000E+00,+8.600001E-02,+3.400000E+00
-6.904000E+00,+8.200001E-02,+3.000000E+00
-6.902000E+00,+7.800001E-02,+3.000000E+00
-6.900000E+00,+7.000001E-02,+2.800000E+00
-6.898000E+00,+6.200000E-02,+2.400000E+00
-6.896000E+00,+6.200000E-02,+2.400000E+00
-6.894000E+00,+5.400000E-02,+2.200000E+00
-6.892000E+00,+5.000000E-02,+2.000000E+00
-6.890000E+00,+5.000000E-02,+1.800000E+00
-6.888000E+00,+4.200000E-02,+1.600000E+00
-6.886000E+00,+4.200000E-02,+1.600000E+00
-6.884000E+00,+3.000000E-02,+1.400000E+00
-6.882000E+00,+3.000000E-02,+1.600000E+00
-6.880000E+00,+2.200000E-02,+1.200000E+00
-6.878000E+00,+1.800000E-02,+1.000000E+00
-6.876000E+00,+1.400000E-02,+8.000000E-01
-6.874000E+00,+1.400000E-02,+6.000000E-01
-6.872000E+00,+6.000000E-03,+4.000000E-01
-6.870000E+00,-2.000000E-03,+2.000000E-01
-6.868000E+00,+2.000000E-03,+0.000000E+00
-6.866000E+00,-1.000000E-02,+2.000000E-01
-6.864000E+00,-1.000000E-02,+0.000000E+00
-6.862000E+00,-1.800000E-02,-2.000000E-01
-6.860000E+00,-2.200000E-02,-4.000000E-01
-6.858000E+00,-3.000000E-02,-6.000000E-01
-6.856000E+00,-3.000000E-02,-8.000000E-01
-6.854000E+00,-3.800000E-02,-8.000000E-01
-6.852000E+00,-4.200000E-02,-1.000000E+00
-6.850000E+00,-4.600000E-02,-1.400000E+00
-6.848000E+00,-4.600000E-02,-1.400000E+00
-6.846000E+00,-5.000000E-02,-1.400000E+00
-6.844000E+00,-6.200000E-02,-1.600000E+00
-6.842000E+00,-6.600000E-02,-1.800000E+00
-6.840000E+00,-6.200000E-02,-2.000000E+00
-6.838000E+00,-7.400000E-02,-2.000000E+00
-6.836000E+00,-7.400000E-02,-2.400000E+00
-6.834000E+00,-8.200000E-02,-2.400000E+00
-6.832000E+00,-8.600000E-02,-2.400000E+00
-6.830000E+00,-8.600000E-02,-2.600000E+00
-6.828000E+00,-9.400000E-02,-3.000000E+00
-6.826000E+00,-9.800000E-02,-3.000000E+00
-6.824000E+00,-1.020000E-01,-3.200000E+00
-6.822000E+00,-1.100000E-01,-3.200000E+00
-6.820000E+00,-1.060000E-01,-3.400000E+00
-6.818000E+00,-1.140000E-01,-3.800000E+00
-6.816000E+00,-1.180000E-01,-3.800000E+00
-6.814000E+00,-1.220000E-01,-3.800000E+00
-6.812000E+00,-1.220000E-01,-4.200000E+00
-6.810000E+00,-1.300000E-01,-4.200000E+00
-6.808000E+00,-1.340000E-01,-4.200000E+00
-6.806000E+00,-1.300000E-01,-4.400000E+00
-6.804000E+00,-1.420000E-01,-4.600000E+00
-6.802000E+00,-1.420000E-01,-4.800000E+00
-6.800000E+00,-1.460000E-01,-4.800000E+00
-6.798000E+00,-1.500000E-01,-5.000000E+00
-6.796000E+00,-1.540000E-01,-5.200000E+00
-6.794000E+00,-1.580000E-01,-5.400000E+00
-6.792000E+00,-1.580000E-01,-5.600000E+00
-6.790000E+00,-1.580000E-01,-5.600000E+00
-6.788000E+00,-1.620000E-01,-6.000000E+00
-6.786000E+00,-1.700000E-01,-5.800000E+00
-6.784000E+00,-1.700000E-01,-6.200000E+00
-6.782000E+00,-1.740000E-01,-6.200000E+00
-6.780000E+00,-1.700000E-01,-6.200000E+00
-6.778000E+00,-1.780000E-01,-6.400000E+00
-6.776000E+00,-1.820000E-01,-6.600000E+00
-6.774000E+00,-1.820000E-01,-6.600000E+00
-6.772000E+00,-1.860000E-01,-6.800000E+00
-6.770000E+00,-1.900000E-01,-7.000000E+00
-6.768000E+00,-1.900000E-01,-7.000000E+00
-6.766000E+00,-1.900000E-01,-7.200000E+00
-6.764000E+00,-1.940000E-01,-7.600000E+00
-6.762000E+00,-1.940000E-01,-7.400000E+00
-6.760000E+00,-1.940000E-01,-7.600000E+00
-6.758000E+00,-1.980000E-01,-7.600000E+00
-6.756000E+00,-2.020000E-01,-7.800000E+00
-6.754000E+00,-2.020000E-01,-7.800000E+00
-6.752000E+00,-2.060000E-01,-8.000000E+00
-6.750000E+00,-2.060000E-01,-8.400001E+00
-6.748000E+00,-2.100000E-01,-8.200000E+00
-6.746000E+00,-2.100000E-01,-8.200000E+00
-6.744000E+00,-2.100000E-01,-8.400001E+00
-6.742000E+00,-2.100000E-01,-8.600000E+00
-6.740000E+00,-2.140000E-01,-8.800000E+00
-6.738000E+00,-2.180000E-01,-8.800000E+00
-6.736000E+00,-2.180000E-01,-8.800000E+00
-6.734000E+00,-2.180000E-01,-8.800000E+00
-6.732000E+00,-2.180000E-01,-9.000000E+00
-6.730000E+00,-2.180000E-01,-9.400001E+00
-6.728000E+00,-2.220000E-01,-9.200000E+00
-6.726000E+00,-2.220000E-01,-9.200000E+00
-6.724000E+00,-2.260000E-01,-9.400001E+00
-6.722000E+00,-2.260000E-01,-9.400001E+00
-6.720000E+00,-2.260000E-01,-9.600000E+00
-6.718000E+00,-2.260000E-01,-9.600000E+00
-6.716000E+00,-2.300000E-01,-9.600000E+00
-6.714000E+00,-2.300000E-01,-9.800000E+00
-6.712000E+00,-2.340000E-01,-9.800000E+00
-6.710000E+00,-2.300000E-01,-1.000000E+01
-6.708000E+00,-2.300000E-01,-1.000000E+01
-6.706000E+00,-2.340000E-01,-1.000000E+01
-6.704000E+00,-2.340000E-01,-1.000000E+01
-6.702000E+00,-2.340000E-01,-1.040000E+01
-6.700000E+00,-2.380000E-01,-1.020000E+01
-6.698000E+00,-2.380000E-01,-1.020000E+01
-6.696000E+00,-2.340000E-01,-1.040000E+01
-6.694000E+00,-2.380000E-01,-1.040000E+01
-6.692000E+00,-2.380000E-01,-1.040000E+01
-6.690000E+00,-2.380000E-01,-1.060000E+01
-6.688000E+00,-2.380000E-01,-1.060000E+01
-6.686000E+00,-2.380000E-01,-1.060000E+01
-6.684000E+00,-2.420000E-01,-1.060000E+01
-6.682000E+00,-2.380000E-01,-1.060000E+01
-6.680000E+00,-2.380000E-01,-1.080000E+01
-6.678000E+00,-2.420000E-01,-1.080000E+01
-6.676000E+00,-2.420000E-01,-1.080000E+01
-6.674000E+00,-2.420000E-01,-1.080000E+01
-6.672000E+00,-2.420000E-01,-1.080000E+01
-6.670000E+00,-2.420000E-01,-1.080000E+01
-6.668000E+00,-2.460000E-01,-1.100000E+01
-6.666000E+00,-2.420000E-01,-1.100000E+01
-6.664000E+00,-2.420000E-01,-1.100000E+01
-6.662000E+00,-2.420000E-01,-1.100000E+01
-6.660000E+00,-2.420000E-01,-1.100000E+01
-6.658000E+00,-2.460000E-01,-1.100000E+01
-6.656000E+00,-2.460000E-01,-1.100000E+01
-6.654000E+00,-2.460000E-01,-1.100000E+01
-6.652000E+00,-2.460000E-01,-1.120000E+01
-6.650000E+00,-2.420000E-01,-1.120000E+01
-6.648000E+00,-2.460000E-01,-1.120000E+01
-6.646000E+00,-2.460000E-01,-1.120000E+01
-6.644000E+00,-2.460000E-01,-1.120000E+01
-6.642000E+00,-2.460000E-01,-1.120000E+01
-6.640000E+00,-2.460000E-01,-1.120000E+01
-6.638000E+00,-2.460000E-01,-1.120000E+01
-6.636000E+00,-2.460000E-01,-1.120000E+01
-6.634000E+00,-2.460000E-01,-1.120000E+01
-6.632000E+00,-2.460000E-01,-1.120000E+01
-6.630000E+00,-2.460000E-01,-1.120000E+01
-6.628000E+00,-2.460000E-01,-1.120000E+01
-6.626000E+00,-2.420000E-01,-1.120000E+01
-6.624000E+00,-2.460000E-01,-1.120000E+01
-6.622000E+00,-2.420000E-01,-1.120000E+01
-6.620000E+00,-2.420000E-01,-1.100000E+01
-6.618000E+00,-2.420000E-01,-1.100000E+01
-6.616000E+00,-2.420000E-01,-1.100000E+01
-6.614000E+00,-2.420000E-01,-1.100000E+01
-6.612000E+00,-2.420000E-01,-1.100000E+01
-6.610000E+00,-2.420000E-01,-1.100000E+01
-6.608000E+00,-2.420000E-01,-1.100000E+01
-6.606000E+00,-2.380000E-01,-1.100000E+01
-6.604000E+00,-2.380000E-01,-1.100000E+01
-6.602000E+00,-2.380000E-01,-1.080000E+01
-6.600000E+00,-2.380000E-01,-1.080000E+01
-6.598000E+00,-2.380000E-01,-1.100000E+01
-6.596000E+00,-2.380000E-01,-1.080000E+01
-6.594000E+00,-2.380000E-01,-1.080000E+01
-6.592000E+00,-2.380000E-01,-1.060000E+01
-6.590000E+00,-2.340000E-01,-1.060000E+01
-6.588000E+00,-2.340000E-01,-1.060000E+01
-6.586000E+00,-2.340000E-01,-1.060000E+01
-6.584000E+00,-2.340000E-01,-1.040000E+01
-6.582000E+00,-2.340000E-01,-1.060000E+01
-6.580000E+00,-2.340000E-01,-1.040000E+01
-6.578000E+00,-2.300000E-01,-1.040000E+01
-6.576000E+00,-2.340000E-01,-1.020000E+01
-6.574000E+00,-2.300000E-01,-1.020000E+01
-6.572000E+00,-2.300000E-01,-1.020000E+01
-6.570000E+00,-2.300000E-01,-1.000000E+01
-6.568000E+00,-2.260000E-01,-1.000000E+01
-6.566000E+00,-2.260000E-01,-1.000000E+01
-6.564000E+00,-2.260000E-01,-1.000000E+01
-6.562000E+00,-2.260000E-01,-9.800000E+00
-6.560000E+00,-2.220000E-01,-9.600000E+00
-6.558000E+00,-2.220000E-01,-9.600000E+00
-6.556000E+00,-2.180000E-01,-9.600000E+00
-6.554000E+00,-2.220000E-01,-9.600000E+00
-6.552000E+00,-2.180000E-01,-9.400001E+00
-6.550000E+00,-2.180000E-01,-9.400001E+00
-6.548000E+00,-2.140000E-01,-9.200000E+00
-6.546000E+00,-2.140000E-01,-9.200000E+00
-6.544000E+00,-2.140000E-01,-9.000000E+00
-6.542000E+00,-2.060000E-01,-9.000000E+00
-6.540000E+00,-2.060000E-01,-8.800000E+00
-6.538000E+00,-2.100000E-01,-8.800000E+00
-6.536000E+00,-2.020000E-01,-8.600000E+00
-6.534000E+00,-2.020000E-01,-8.400001E+00
-6.532000E+00,-2.020000E-01,-8.400001E+00
-6.530000E+00,-2.020000E-01,-8.400001E+00
-6.528000E+00,-2.020000E-01,-8.400001E+00
-6.526000E+00,-1.980000E-01,-8.000000E+00
-6.524000E+00,-1.940000E-01,-8.000000E+00
-6.522000E+00,-1.940000E-01,-7.800000E+00
-6.520000E+00,-1.900000E-01,-7.800000E+00
-6.518000E+00,-1.900000E-01,-7.600000E+00
-6.516000E+00,-1.860000E-01,-7.600000E+00
-6.514000E+00,-1.860000E-01,-7.400000E+00
-6.512000E+00,-1.860000E-01,-7.200000E+00
-6.510000E+00,-1.820000E-01,-7.200000E+00
-6.508000E+00,-1.780000E-01,-7.000000E+00
-6.506000E+00,-1.780000E-01,-6.800000E+00
-6.504000E+00,-1.740000E-01,-6.800000E+00
-6.502000E+00,-1.740000E-01,-6.800000E+00
-6.500000E+00,-1.660000E-01,-6.400000E+00
-6.498000E+00,-1.660000E-01,-6.600000E+00
-6.496000E+00,-1.620000E-01,-6.200000E+00
-6.494000E+00,-1.660000E-01,-6.200000E+00
-6.492000E+00,-1.620000E-01,-5.800000E+00
-6.490000E+00,-1.580000E-01,-5.800000E+00
-6.488000E+00,-1.500000E-01,-5.600000E+00
-6.486000E+00,-1.500000E-01,-5.600000E+00
-6.484000E+00,-1.460000E-01,-5.600000E+00
-6.482000E+00,-1.460000E-01,-5.400000E+00
-6.480000E+00,-1.420000E-01,-5.200000E+00
-6.478000E+00,-1.380000E-01,-5.000000E+00
-6.476000E+00,-1.380000E-01,-5.000000E+00
-6.474000E+00,-1.340000E-01,-4.600000E+00
-6.472000E+00,-1.300000E-01,-4.800000E+00
-6.470000E+00,-1.260000E-01,-4.600000E+00
-6.468000E+00,-1.220000E-01,-4.400000E+00
-6.466000E+00,-1.180000E-01,-4.400000E+00
-6.464000E+00,-1.140000E-01,-4.200000E+00
-6.462000E+00,-1.140000E-01,-3.800000E+00
-6.460000E+00,-1.100000E-01,-3.600000E+00
-6.458000E+00,-9.800000E-02,-3.600000E+00
-6.456000E+00,-1.020000E-01,-3.400000E+00
-6.454000E+00,-9.800000E-02,-3.400000E+00
-6.452000E+00,-9.400000E-02,-3.200000E+00
-6.450000E+00,-9.000000E-02,-3.200000E+00
-6.448000E+00,-8.600000E-02,-3.000000E+00
-6.446000E+00,-7.400000E-02,-2.600000E+00
-6.444000E+00,-7.400000E-02,-2.400000E+00
-6.442000E+00,-7.000000E-02,-2.400000E+00
-6.440000E+00,-6.600000E-02,-2.200000E+00
-6.438000E+00,-6.600000E-02,-2.000000E+00
-6.436000E+00,-5.800000E-02,-1.800000E+00
-6.434000E+00,-5.400000E-02,-1.800000E+00
-6.432000E+00,-5.000000E-02,-1.800000E+00
-6.430000E+00,-4.200000E-02,-1.600000E+00
-6.428000E+00,-3.800000E-02,-1.200000E+00
-6.426000E+00,-3.400000E-02,-1.200000E+00
-6.424000E+00,-2.600000E-02,-1.000000E+00
-6.422000E+00,-2.200000E-02,-8.000000E-01
-6.420000E+00,-2.200000E-02,-8.000000E-01
-6.418000E+00,-1.400000E-02,-6.000000E-01
-6.416000E+00,-1.400000E-02,-6.000000E-01
-6.414000E+00,-6.000000E-03,-4.000000E-01
-6.412000E+00,+2.000000E-03,-2.000000E-01
-6.410000E+00,+2.000000E-03,+2.000000E-01
-6.408000E+00,+2.000000E-03,+2.000000E-01
-6.406000E+00,+1.400000E-02,+4.000000E-01
-6.404000E+00,+1.800000E-02,+6.000000E-01
-6.402000E+00,+1.800000E-02,+8.000000E-01
-6.400000E+00,+2.600000E-02,+8.000000E-01
-6.398000E+00,+3.400000E-02,+1.200000E+00
-6.396000E+00,+3.000000E-02,+1.000000E+00
-6.394000E+00,+3.800000E-02,+1.400000E+00
-6.392000E+00,+4.200000E-02,+1.600000E+00
-6.390000E+00,+5.000000E-02,+1.600000E+00
-6.388000E+00,+5.400000E-02,+1.800000E+00
-6.386000E+00,+5.400000E-02,+1.800000E+00
-6.384000E+00,+5.800000E-02,+2.000000E+00
-6.382000E+00,+6.200000E-02,+2.200000E+00
-6.380000E+00,+7.000001E-02,+2.200000E+00
-6.378000E+00,+7.800001E-02,+2.400000E+00
-6.376000E+00,+7.800001E-02,+2.600000E+00
-6.374000E+00,+8.200001E-02,+2.800000E+00
-6.372000E+00,+9.000001E-02,+3.000000E+00
-6.370000E+00,+9.400000E-02,+3.200000E+00
-6.368000E+00,+9.400000E-02,+3.400000E+00
-6.366000E+00,+9.800000E-02,+3.600000E+00
-6.364000E+00,+1.060000E-01,+3.600000E+00
-6.362000E+00,+1.100000E-01,+3.600000E+00
-6.360000E+00,+1.100000E-01,+3.800000E+00
-6.358000E+00,+1.180000E-01,+4.200000E+00
-6.356000E+00,+1.220000E-01,+4.200000E+00
-6.354000E+00,+1.220000E-01,+4.200000E+00
-6.352000E+00,+1.260000E-01,+4.400000E+00
-6.350000E+00,+1.300000E-01,+4.800000E+00
-6.348000E+00,+1.300000E-01,+4.800000E+00
-6.346000E+00,+1.380000E-01,+5.000000E+00
-6.344000E+00,+1.420000E-01,+5.200000E+00
-6.342000E+00,+1.460000E-01,+5.000000E+00
-6.340000E+00,+1.420000E-01,+5.400000E+00
-6.338000E+00,+1.500000E-01,+5.400000E+00
-6.336000E+00,+1.540000E-01,+5.600000E+00
-6.334000E+00,+1.580000E-01,+5.800000E+00
-6.332000E+00,+1.620000E-01,+5.800000E+00
-6.330000E+00,+1.580000E-01,+6.000000E+00
-6.328000E+00,+1.660000E-01,+6.200000E+00
-6.326000E+00,+1.620000E-01,+6.200000E+00
-6.324000E+00,+1.700000E-01,+6.400000E+00
-6.322000E+00,+1.740000E-01,+6.600000E+00
-6.320000E+00,+1.780000E-01,+6.600000E+00
-6.318000E+00,+1.780000E-01,+6.800000E+00
-6.316000E+00,+1.780000E-01,+7.000000E+00
-6.314000E+00,+1.780000E-01,+7.000000E+00
-6.312000E+00,+1.820000E-01,+7.200000E+00
-6.310000E+00,+1.860000E-01,+7.400000E+00
-6.308000E+00,+1.860000E-01,+7.400000E+00
-6.306000E+00,+1.900000E-01,+7.600000E+00
-6.304000E+00,+1.900000E-01,+7.600000E+00
-6.302000E+00,+1.900000E-01,+7.800000E+00
-6.300000E+00,+1.940000E-01,+8.000000E+00
-6.298000E+00,+1.940000E-01,+8.000000E+00
-6.296000E+00,+1.940000E-01,+8.200000E+00
-6.294000E+00,+2.020000E-01,+8.200000E+00
-6.292000E+00,+2.020000E-01,+8.400001E+00
-6.290000E+00,+2.020000E-01,+8.600000E+00
-6.288000E+00,+2.060000E-01,+8.800000E+00
-6.286000E+00,+2.100000E-01,+8.800000E+00
-6.284000E+00,+2.100000E-01,+9.000000E+00
-6.282000E+00,+2.100000E-01,+9.000000E+00
-6.280000E+00,+2.140000E-01,+9.200000E+00
-6.278000E+00,+2.140000E-01,+9.200000E+00
-6.276000E+00,+2.140000E-01,+9.200000E+00
-6.274000E+00,+2.140000E-01,+9.400001E+00
-6.272000E+00,+2.180000E-01,+9.600000E+00
-6.270000E+00,+2.180000E-01,+9.600000E+00
-6.268000E+00,+2.220000E-01,+9.800000E+00
-6.266000E+00,+2.220000E-01,+9.800000E+00
-6.264000E+00,+2.220000E-01,+9.800000E+00
-6.262000E+00,+2.220000E-01,+1.000000E+01
-6.260000E+00,+2.260000E-01,+1.000000E+01
-6.258000E+00,+2.220000E-01,+1.020000E+01
-6.256000E+00,+2.220000E-01,+1.020000E+01
-6.254000E+00,+2.300000E-01,+1.040000E+01
-6.252000E+00,+2.300000E-01,+1.040000E+01
-6.250000E+00,+2.300000E-01,+1.040000E+01
-6.248000E+00,+2.340000E-01,+1.060000E+01
-6.246000E+00,+2.340000E-01,+1.060000E+01
-6.244000E+00,+2.300000E-01,+1.080000E+01
-6.242000E+00,+2.340000E-01,+1.080000E+01
-6.240000E+00,+2.340000E-01,+1.080000E+01
-6.238000E+00,+2.340000E-01,+1.100000E+01
-6.236000E+00,+2.300000E-01,+1.100000E+01
-6.234000E+00,+2.380000E-01,+1.100000E+01
-6.232000E+00,+2.380000E-01,+1.100000E+01
-6.230000E+00,+2.380000E-01,+1.120000E+01
-6.228000E+00,+2.340000E-01,+1.120000E+01
-6.226000E+00,+2.380000E-01,+1.120000E+01
-6.224000E+00,+2.380000E-01,+1.120000E+01
-6.222000E+00,+2.420000E-01,+1.140000E+01
-6.220000E+00,+2.420000E-01,+1.140000E+01
-6.218000E+00,+2.420000E-01,+1.140000E+01
-6.216000E+00,+2.420000E-01,+1.160000E+01
-6.214000E+00,+2.420000E-01,+1.160000E+01
-6.212000E+00,+2.420000E-01,+1.160000E+01
-6.210000E+00,+2.420000E-01,+1.160000E+01
-6.208000E+00,+2.420000E-01,+1.180000E+01
-6.206000E+00,+2.460000E-01,+1.140000E+01
-6.204000E+00,+2.460000E-01,+1.180000E+01
-6.202000E+00,+2.420000E-01,+1.160000E+01
-6.200000E+00,+2.460000E-01,+1.180000E+01
-6.198000E+00,+2.420000E-01,+1.200000E+01
-6.196000E+00,+2.460000E-01,+1.200000E+01
-6.194000E+00,+2.460000E-01,+1.200000E+01
-6.192000E+00,+2.460000E-01,+1.200000E+01
-6.190000E+00,+2.460000E-01,+1.200000E+01
-6.188000E+00,+2.420000E-01,+1.180000E+01
-6.186000E+00,+2.420000E-01,+1.200000E+01
-6.184000E+00,+2.460000E-01,+1.200000E+01
-6.182000E+00,+2.420000E-01,+1.200000E+01
-6.180000E+00,+2.420000E-01,+1.220000E+01
-6.178000E+00,+2.460000E-01,+1.220000E+01
-6.176000E+00,+2.500000E-01,+1.220000E+01
-6.174000E+00,+2.460000E-01,+1.200000E+01
-6.172000E+00,+2.460000E-01,+1.220000E+01
-6.170000E+00,+2.460000E-01,+1.220000E+01
-6.168000E+00,+2.460000E-01,+1.200000E+01
-6.166000E+00,+2.460000E-01,+1.200000E+01
-6.164000E+00,+2.460000E-01,+1.200000E+01
-6.162000E+00,+2.460000E-01,+1.200000E+01
-6.160000E+00,+2.460000E-01,+1.200000E+01
-6.158000E+00,+2.420000E-01,+1.180000E+01
-6.156000E+00,+2.380000E-01,+1.200000E+01
-6.154000E+00,+2.460000E-01,+1.180000E+01
-6.152000E+00,+2.420000E-01,+1.180000E+01
-6.150000E+00,+2.420000E-01,+1.180000E+01
-6.148000E+00,+2.420000E-01,+1.180000E+01
-6.146000E+00,+2.420000E-01,+1.160000E+01
-6.144000E+00,+2.380000E-01,+1.160000E+01
-6.142000E+00,+2.380000E-01,+1.160000E+01
-6.140000E+00,+2.380000E-01,+1.160000E+01
-6.138000E+00,+2.380000E-01,+1.160000E+01
-6.136000E+00,+2.380000E-01,+1.160000E+01
-6.134000E+00,+2.380000E-01,+1.140000E+01
-6.132000E+00,+2.380000E-01,+1.140000E+01
-6.130000E+00,+2.300000E-01,+1.140000E+01
-6.128000E+00,+2.300000E-01,+1.120000E+01
-6.126000E+00,+2.340000E-01,+1.120000E+01
-6.124000E+00,+2.300000E-01,+1.120000E+01
-6.122000E+00,+2.300000E-01,+1.120000E+01
-6.120000E+00,+2.260000E-01,+1.100000E+01
-6.118000E+00,+2.260000E-01,+1.100000E+01
-6.116000E+00,+2.260000E-01,+1.100000E+01
-6.114000E+00,+2.260000E-01,+1.080000E+01
-6.112000E+00,+2.260000E-01,+1.080000E+01
-6.110000E+00,+2.300000E-01,+1.060000E+01
-6.108000E+00,+2.260000E-01,+1.060000E+01
-6.106000E+00,+2.260000E-01,+1.060000E+01
-6.104000E+00,+2.180000E-01,+1.040000E+01
-6.102000E+00,+2.220000E-01,+1.040000E+01
-6.100000E+00,+2.220000E-01,+1.020000E+01
-6.098000E+00,+2.140000E-01,+1.020000E+01
-6.096000E+00,+2.140000E-01,+1.000000E+01
-6.094000E+00,+2.140000E-01,+1.000000E+01
-6.092000E+00,+2.180000E-01,+1.000000E+01
-6.090000E+00,+2.140000E-01,+9.800000E+00
-6.088000E+00,+2.100000E-01,+9.800000E+00
-6.086000E+00,+2.100000E-01,+9.600000E+00
-6.084000E+00,+2.100000E-01,+9.600000E+00
-6.082000E+00,+2.060000E-01,+9.400001E+00
-6.080000E+00,+2.100000E-01,+9.200000E+00
-6.078000E+00,+2.060000E-01,+9.200000E+00
-6.076000E+00,+2.060000E-01,+9.000000E+00
-6.074000E+00,+1.980000E-01,+9.000000E+00
-6.072000E+00,+2.020000E-01,+8.800000E+00
-6.070000E+00,+1.980000E-01,+8.800000E+00
-6.068000E+00,+1.980000E-01,+8.600000E+00
