PHYS/PHYS 3200Y/Lab 2/Lab 2B/real data/SDS00007.csv

Record Length,Analog:7000,
Sample Interval,Analog:1.000000E-04,
Vertical Units,CH1:V, CH2:V,,
Vertical Scale,CH1:+1.000000E-01, CH2:+5.000000E+00,,
Vertical Offset,CH1:+2.000000E-03, CH2:+0.000000E+00,,
Horizontal Units,us,
Horizontal Scale,+5.000000E+04,
Model Number,SDS1202X-E,
Serial Number,SDS1EEFX803349,
Software Version,1.3.27,
Source,CH1,CH2
Second,Value,Value
-3.500000E-01,+2.200000E-02,+6.000000E-01
-3.499000E-01,+1.000000E-02,+4.000000E-01
-3.498000E-01,+2.000000E-03,+2.000000E-01
-3.497000E-01,+2.000000E-03,+0.000000E+00
-3.496000E-01,-2.000000E-03,+0.000000E+00
-3.495000E-01,-1.000000E-02,-2.000000E-01
-3.494000E-01,-1.800000E-02,-6.000000E-01
-3.493000E-01,-2.200000E-02,-6.000000E-01
-3.492000E-01,-2.600000E-02,-8.000000E-01
-3.491000E-01,-3.400000E-02,-1.000000E+00
-3.490000E-01,-3.800000E-02,-1.400000E+00
-3.489000E-01,-4.600000E-02,-1.400000E+00
-3.488000E-01,-5.000000E-02,-1.400000E+00
-3.487000E-01,-5.400000E-02,-1.800000E+00
-3.486000E-01,-6.200000E-02,-1.800000E+00
-3.485000E-01,-6.600000E-02,-2.000000E+00
-3.484000E-01,-7.000000E-02,-2.200000E+00
-3.483000E-01,-7.800000E-02,-2.400000E+00
-3.482000E-01,-8.200000E-02,-2.800000E+00
-3.481000E-01,-8.600000E-02,-2.800000E+00
-3.480000E-01,-9.000000E-02,-3.200000E+00
-3.479000E-01,-9.800000E-02,-3.200000E+00
-3.478000E-01,-1.020000E-01,-3.600000E+00
-3.477000E-01,-1.060000E-01,-3.600000E+00
-3.476000E-01,-1.100000E-01,-3.600000E+00
-3.475000E-01,-1.140000E-01,-4.000000E+00
-3.474000E-01,-1.180000E-01,-4.000000E+00
-3.473000E-01,-1.260000E-01,-4.400000E+00
-3.472000E-01,-1.300000E-01,-4.600000E+00
-3.471000E-01,-1.340000E-01,-4.800000E+00
-3.470000E-01,-1.380000E-01,-4.800000E+00
-3.469000E-01,-1.460000E-01,-4.800000E+00
-3.468000E-01,-1.420000E-01,-5.200000E+00
-3.467000E-01,-1.500000E-01,-5.400000E+00
-3.466000E-01,-1.540000E-01,-5.400000E+00
-3.465000E-01,-1.580000E-01,-5.600000E+00
-3.464000E-01,-1.620000E-01,-5.800000E+00
-3.463000E-01,-1.620000E-01,-5.800000E+00
-3.462000E-01,-1.660000E-01,-6.200000E+00
-3.461000E-01,-1.700000E-01,-6.200000E+00
-3.460000E-01,-1.740000E-01,-6.200000E+00
-3.459000E-01,-1.780000E-01,-6.400000E+00
-3.458000E-01,-1.740000E-01,-6.600000E+00
-3.457000E-01,-1.780000E-01,-6.800000E+00
-3.456000E-01,-1.860000E-01,-6.800000E+00
-3.455000E-01,-1.780000E-01,-7.000000E+00
-3.454000E-01,-1.900000E-01,-7.400000E+00
-3.453000E-01,-1.900000E-01,-7.400000E+00
-3.452000E-01,-1.940000E-01,-7.400000E+00
-3.451000E-01,-1.980000E-01,-7.800000E+00
-3.450000E-01,-1.980000E-01,-7.600000E+00
-3.449000E-01,-1.980000E-01,-8.000000E+00
-3.448000E-01,-1.980000E-01,-8.000000E+00
-3.447000E-01,-2.020000E-01,-8.000000E+00
-3.446000E-01,-2.020000E-01,-8.000000E+00
-3.445000E-01,-2.060000E-01,-8.200000E+00
-3.444000E-01,-2.060000E-01,-8.400001E+00
-3.443000E-01,-2.060000E-01,-8.400001E+00
-3.442000E-01,-2.100000E-01,-8.800000E+00
-3.441000E-01,-2.100000E-01,-8.600000E+00
-3.440000E-01,-2.140000E-01,-8.800000E+00
-3.439000E-01,-2.180000E-01,-8.800000E+00
-3.438000E-01,-2.180000E-01,-8.800000E+00
-3.437000E-01,-2.180000E-01,-9.000000E+00
-3.436000E-01,-2.180000E-01,-9.000000E+00
-3.435000E-01,-2.180000E-01,-9.200000E+00
-3.434000E-01,-2.180000E-01,-9.200000E+00
-3.433000E-01,-2.180000E-01,-9.200000E+00
-3.432000E-01,-2.260000E-01,-9.400001E+00
-3.431000E-01,-2.220000E-01,-9.400001E+00
-3.430000E-01,-2.180000E-01,-9.400001E+00
-3.429000E-01,-2.260000E-01,-9.600000E+00
-3.428000E-01,-2.180000E-01,-9.600000E+00
-3.427000E-01,-2.260000E-01,-9.600000E+00
-3.426000E-01,-2.260000E-01,-9.800000E+00
-3.425000E-01,-2.300000E-01,-9.800000E+00
-3.424000E-01,-2.260000E-01,-9.800000E+00
-3.423000E-01,-2.300000E-01,-9.800000E+00
-3.422000E-01,-2.300000E-01,-9.800000E+00
-3.421000E-01,-2.260000E-01,-9.800000E+00
-3.420000E-01,-2.300000E-01,-9.800000E+00
-3.419000E-01,-2.300000E-01,-1.000000E+01
-3.418000E-01,-2.300000E-01,-1.000000E+01
-3.417000E-01,-2.300000E-01,-1.000000E+01
-3.416000E-01,-2.300000E-01,-1.020000E+01
-3.415000E-01,-2.300000E-01,-1.000000E+01
-3.414000E-01,-2.300000E-01,-1.020000E+01
-3.413000E-01,-2.300000E-01,-1.000000E+01
-3.412000E-01,-2.300000E-01,-1.000000E+01
-3.411000E-01,-2.300000E-01,-1.000000E+01
-3.410000E-01,-2.300000E-01,-1.000000E+01
-3.409000E-01,-2.300000E-01,-1.000000E+01
-3.408000E-01,-2.300000E-01,-9.800000E+00
-3.407000E-01,-2.260000E-01,-1.020000E+01
-3.406000E-01,-2.260000E-01,-9.800000E+00
-3.405000E-01,-2.260000E-01,-9.800000E+00
-3.404000E-01,-2.260000E-01,-9.800000E+00
-3.403000E-01,-2.260000E-01,-9.800000E+00
-3.402000E-01,-2.260000E-01,-9.800000E+00
-3.401000E-01,-2.260000E-01,-9.800000E+00
-3.400000E-01,-2.260000E-01,-9.600000E+00
-3.399000E-01,-2.220000E-01,-9.600000E+00
-3.398000E-01,-2.220000E-01,-9.600000E+00
-3.397000E-01,-2.220000E-01,-9.400001E+00
-3.396000E-01,-2.220000E-01,-9.600000E+00
-3.395000E-01,-2.220000E-01,-9.400001E+00
-3.394000E-01,-2.180000E-01,-9.400001E+00
-3.393000E-01,-2.180000E-01,-9.200000E+00
-3.392000E-01,-2.180000E-01,-9.200000E+00
-3.391000E-01,-2.140000E-01,-9.200000E+00
-3.390000E-01,-2.100000E-01,-9.000000E+00
-3.389000E-01,-2.140000E-01,-8.800000E+00
-3.388000E-01,-2.140000E-01,-8.800000E+00
-3.387000E-01,-2.140000E-01,-8.800000E+00
-3.386000E-01,-2.100000E-01,-8.600000E+00
-3.385000E-01,-2.100000E-01,-8.600000E+00
-3.384000E-01,-2.020000E-01,-8.400001E+00
-3.383000E-01,-2.060000E-01,-8.400001E+00
-3.382000E-01,-1.980000E-01,-8.200000E+00
-3.381000E-01,-2.020000E-01,-8.200000E+00
-3.380000E-01,-2.020000E-01,-8.000000E+00
-3.379000E-01,-1.980000E-01,-8.000000E+00
-3.378000E-01,-1.940000E-01,-7.800000E+00
-3.377000E-01,-1.940000E-01,-7.800000E+00
-3.376000E-01,-1.940000E-01,-7.600000E+00
-3.375000E-01,-1.900000E-01,-7.600000E+00
-3.374000E-01,-1.860000E-01,-7.400000E+00
-3.373000E-01,-1.820000E-01,-7.200000E+00
-3.372000E-01,-1.820000E-01,-7.000000E+00
-3.371000E-01,-1.780000E-01,-7.000000E+00
-3.370000E-01,-1.740000E-01,-6.800000E+00
-3.369000E-01,-1.740000E-01,-6.600000E+00
-3.368000E-01,-1.740000E-01,-6.800000E+00
-3.367000E-01,-1.700000E-01,-6.400000E+00
-3.366000E-01,-1.660000E-01,-6.200000E+00
-3.365000E-01,-1.620000E-01,-6.200000E+00
-3.364000E-01,-1.620000E-01,-6.000000E+00
-3.363000E-01,-1.580000E-01,-5.800000E+00
-3.362000E-01,-1.540000E-01,-5.600000E+00
-3.361000E-01,-1.460000E-01,-5.400000E+00
-3.360000E-01,-1.460000E-01,-5.400000E+00
-3.359000E-01,-1.380000E-01,-5.200000E+00
-3.358000E-01,-1.380000E-01,-5.000000E+00
-3.357000E-01,-1.340000E-01,-5.000000E+00
-3.356000E-01,-1.340000E-01,-4.600000E+00
-3.355000E-01,-1.260000E-01,-4.600000E+00
-3.354000E-01,-1.220000E-01,-4.200000E+00
-3.353000E-01,-1.220000E-01,-4.200000E+00
-3.352000E-01,-1.140000E-01,-4.000000E+00
-3.351000E-01,-1.100000E-01,-4.000000E+00
-3.350000E-01,-1.020000E-01,-3.600000E+00
-3.349000E-01,-9.800000E-02,-3.400000E+00
-3.348000E-01,-9.400000E-02,-3.200000E+00
-3.347000E-01,-8.600000E-02,-3.200000E+00
-3.346000E-01,-8.600000E-02,-3.000000E+00
-3.345000E-01,-8.200000E-02,-2.600000E+00
-3.344000E-01,-7.800000E-02,-2.800000E+00
-3.343000E-01,-7.000000E-02,-2.400000E+00
-3.342000E-01,-6.200000E-02,-2.400000E+00
-3.341000E-01,-6.200000E-02,-2.200000E+00
-3.340000E-01,-5.000000E-02,-2.000000E+00
-3.339000E-01,-4.200000E-02,-1.600000E+00
-3.338000E-01,-4.200000E-02,-1.600000E+00
-3.337000E-01,-3.800000E-02,-1.400000E+00
-3.336000E-01,-3.400000E-02,-1.000000E+00
-3.335000E-01,-2.600000E-02,-1.200000E+00
-3.334000E-01,-1.800000E-02,-8.000000E-01
-3.333000E-01,-1.400000E-02,-4.000000E-01
-3.332000E-01,-1.400000E-02,-2.000000E-01
-3.331000E-01,+2.000000E-03,-4.000000E-01
-3.330000E-01,+2.000000E-03,-2.000000E-01
-3.329000E-01,+6.000000E-03,+0.000000E+00
-3.328000E-01,+1.800000E-02,+2.000000E-01
-3.327000E-01,+1.800000E-02,+6.000000E-01
-3.326000E-01,+2.600000E-02,+8.000000E-01
-3.325000E-01,+3.400000E-02,+8.000000E-01
-3.324000E-01,+3.800000E-02,+1.000000E+00
-3.323000E-01,+3.800000E-02,+1.200000E+00
-3.322000E-01,+4.600000E-02,+1.400000E+00
-3.321000E-01,+5.400000E-02,+1.800000E+00
-3.320000E-01,+5.400000E-02,+1.800000E+00
-3.319000E-01,+6.200000E-02,+2.000000E+00
-3.318000E-01,+6.600001E-02,+2.000000E+00
-3.317000E-01,+7.400001E-02,+2.600000E+00
-3.316000E-01,+7.800001E-02,+2.400000E+00
-3.315000E-01,+8.200001E-02,+3.000000E+00
-3.314000E-01,+9.000001E-02,+2.800000E+00
-3.313000E-01,+9.800000E-02,+3.000000E+00
-3.312000E-01,+9.800000E-02,+3.400000E+00
-3.311000E-01,+1.060000E-01,+3.400000E+00
-3.310000E-01,+1.020000E-01,+3.600000E+00
-3.309000E-01,+1.100000E-01,+4.000000E+00
-3.308000E-01,+1.180000E-01,+4.000000E+00
-3.307000E-01,+1.220000E-01,+4.200000E+00
-3.306000E-01,+1.260000E-01,+4.400000E+00
-3.305000E-01,+1.300000E-01,+4.400000E+00
-3.304000E-01,+1.300000E-01,+4.800000E+00
-3.303000E-01,+1.380000E-01,+4.800000E+00
-3.302000E-01,+1.420000E-01,+5.000000E+00
-3.301000E-01,+1.420000E-01,+5.200000E+00
-3.300000E-01,+1.460000E-01,+5.400000E+00
-3.299000E-01,+1.500000E-01,+5.600000E+00
-3.298000E-01,+1.500000E-01,+5.600000E+00
-3.297000E-01,+1.580000E-01,+5.800000E+00
-3.296000E-01,+1.580000E-01,+5.800000E+00
-3.295000E-01,+1.660000E-01,+6.200000E+00
-3.294000E-01,+1.660000E-01,+6.200000E+00
-3.293000E-01,+1.700000E-01,+6.400000E+00
-3.292000E-01,+1.740000E-01,+6.400000E+00
-3.291000E-01,+1.740000E-01,+6.600000E+00
-3.290000E-01,+1.780000E-01,+6.800000E+00
-3.289000E-01,+1.780000E-01,+7.000000E+00
-3.288000E-01,+1.820000E-01,+7.000000E+00
-3.287000E-01,+1.820000E-01,+7.200000E+00
-3.286000E-01,+1.860000E-01,+7.200000E+00
-3.285000E-01,+1.860000E-01,+7.400000E+00
-3.284000E-01,+1.900000E-01,+7.600000E+00
-3.283000E-01,+1.900000E-01,+7.800000E+00
-3.282000E-01,+1.940000E-01,+7.800000E+00
-3.281000E-01,+1.940000E-01,+7.800000E+00
-3.280000E-01,+2.020000E-01,+8.000000E+00
-3.279000E-01,+2.020000E-01,+8.200000E+00
-3.278000E-01,+2.020000E-01,+8.200000E+00
-3.277000E-01,+1.980000E-01,+8.400001E+00
-3.276000E-01,+2.060000E-01,+8.400001E+00
-3.275000E-01,+2.100000E-01,+8.600000E+00
-3.274000E-01,+2.060000E-01,+8.600000E+00
-3.273000E-01,+2.100000E-01,+8.800000E+00
-3.272000E-01,+2.100000E-01,+8.800000E+00
-3.271000E-01,+2.140000E-01,+8.800000E+00
-3.270000E-01,+2.140000E-01,+9.000000E+00
-3.269000E-01,+2.180000E-01,+9.000000E+00
-3.268000E-01,+2.180000E-01,+9.200000E+00
-3.267000E-01,+2.180000E-01,+9.200000E+00
-3.266000E-01,+2.180000E-01,+9.200000E+00
-3.265000E-01,+2.140000E-01,+9.400001E+00
-3.264000E-01,+2.220000E-01,+9.400001E+00
-3.263000E-01,+2.220000E-01,+9.400001E+00
-3.262000E-01,+2.220000E-01,+9.600000E+00
-3.261000E-01,+2.220000E-01,+9.600000E+00
-3.260000E-01,+2.260000E-01,+9.600000E+00
-3.259000E-01,+2.260000E-01,+9.800000E+00
-3.258000E-01,+2.260000E-01,+9.600000E+00
-3.257000E-01,+2.260000E-01,+9.800000E+00
-3.256000E-01,+2.260000E-01,+9.800000E+00
-3.255000E-01,+2.260000E-01,+9.800000E+00
-3.254000E-01,+2.260000E-01,+9.800000E+00
-3.253000E-01,+2.300000E-01,+9.800000E+00
-3.252000E-01,+2.300000E-01,+9.800000E+00
-3.251000E-01,+2.300000E-01,+1.000000E+01
-3.250000E-01,+2.300000E-01,+1.000000E+01
-3.249000E-01,+2.260000E-01,+1.000000E+01
-3.248000E-01,+2.300000E-01,+1.000000E+01
-3.247000E-01,+2.300000E-01,+1.000000E+01
-3.246000E-01,+2.300000E-01,+1.000000E+01
-3.245000E-01,+2.260000E-01,+1.000000E+01
-3.244000E-01,+2.260000E-01,+1.000000E+01
-3.243000E-01,+2.300000E-01,+1.000000E+01
-3.242000E-01,+2.260000E-01,+1.000000E+01
-3.241000E-01,+2.260000E-01,+1.000000E+01
-3.240000E-01,+2.300000E-01,+1.000000E+01
-3.239000E-01,+2.300000E-01,+9.800000E+00
-3.238000E-01,+2.300000E-01,+9.800000E+00
-3.237000E-01,+2.300000E-01,+9.800000E+00
-3.236000E-01,+2.220000E-01,+9.800000E+00
-3.235000E-01,+2.260000E-01,+9.800000E+00
-3.234000E-01,+2.220000E-01,+9.600000E+00
-3.233000E-01,+2.260000E-01,+9.600000E+00
-3.232000E-01,+2.220000E-01,+9.600000E+00
-3.231000E-01,+2.220000E-01,+9.600000E+00
-3.230000E-01,+2.220000E-01,+9.600000E+00
-3.229000E-01,+2.220000E-01,+9.400001E+00
-3.228000E-01,+2.220000E-01,+9.400001E+00
-3.227000E-01,+2.220000E-01,+9.400001E+00
-3.226000E-01,+2.180000E-01,+9.200000E+00
-3.225000E-01,+2.140000E-01,+9.200000E+00
-3.224000E-01,+2.180000E-01,+9.200000E+00
-3.223000E-01,+2.180000E-01,+9.000000E+00
-3.222000E-01,+2.140000E-01,+9.000000E+00
-3.221000E-01,+2.100000E-01,+8.800000E+00
-3.220000E-01,+2.140000E-01,+8.800000E+00
-3.219000E-01,+2.060000E-01,+8.800000E+00
-3.218000E-01,+2.100000E-01,+8.600000E+00
-3.217000E-01,+2.100000E-01,+8.400001E+00
-3.216000E-01,+2.020000E-01,+8.400001E+00
-3.215000E-01,+2.060000E-01,+8.200000E+00
-3.214000E-01,+1.980000E-01,+8.200000E+00
-3.213000E-01,+2.020000E-01,+8.000000E+00
-3.212000E-01,+1.940000E-01,+8.000000E+00
-3.211000E-01,+1.980000E-01,+7.800000E+00
-3.210000E-01,+1.900000E-01,+7.800000E+00
-3.209000E-01,+1.900000E-01,+7.800000E+00
-3.208000E-01,+1.900000E-01,+7.400000E+00
-3.207000E-01,+1.860000E-01,+7.400000E+00
-3.206000E-01,+1.860000E-01,+7.200000E+00
-3.205000E-01,+1.820000E-01,+7.200000E+00
-3.204000E-01,+1.780000E-01,+7.000000E+00
-3.203000E-01,+1.780000E-01,+6.800000E+00
-3.202000E-01,+1.740000E-01,+6.600000E+00
-3.201000E-01,+1.740000E-01,+6.600000E+00
-3.200000E-01,+1.700000E-01,+6.400000E+00
-3.199000E-01,+1.620000E-01,+6.200000E+00
-3.198000E-01,+1.620000E-01,+6.000000E+00
-3.197000E-01,+1.580000E-01,+6.200000E+00
-3.196000E-01,+1.500000E-01,+5.800000E+00
-3.195000E-01,+1.540000E-01,+5.600000E+00
-3.194000E-01,+1.540000E-01,+5.800000E+00
-3.193000E-01,+1.420000E-01,+5.400000E+00
-3.192000E-01,+1.460000E-01,+5.400000E+00
-3.191000E-01,+1.380000E-01,+5.000000E+00
-3.190000E-01,+1.340000E-01,+4.800000E+00
-3.189000E-01,+1.300000E-01,+4.800000E+00
-3.188000E-01,+1.260000E-01,+4.600000E+00
-3.187000E-01,+1.220000E-01,+4.600000E+00
-3.186000E-01,+1.180000E-01,+4.200000E+00
-3.185000E-01,+1.180000E-01,+4.200000E+00
-3.184000E-01,+1.100000E-01,+3.800000E+00
-3.183000E-01,+1.020000E-01,+3.800000E+00
-3.182000E-01,+1.020000E-01,+3.400000E+00
-3.181000E-01,+9.800000E-02,+3.400000E+00
-3.180000E-01,+9.400000E-02,+3.400000E+00
-3.179000E-01,+8.600001E-02,+2.800000E+00
-3.178000E-01,+7.800001E-02,+2.800000E+00
-3.177000E-01,+7.800001E-02,+2.600000E+00
-3.176000E-01,+7.000001E-02,+2.400000E+00
-3.175000E-01,+6.200000E-02,+2.200000E+00
-3.174000E-01,+5.800000E-02,+2.000000E+00
-3.173000E-01,+5.400000E-02,+1.800000E+00
-3.172000E-01,+5.000000E-02,+1.800000E+00
-3.171000E-01,+3.800000E-02,+1.400000E+00
-3.170000E-01,+4.200000E-02,+1.200000E+00
-3.169000E-01,+3.400000E-02,+1.000000E+00
-3.168000E-01,+2.600000E-02,+1.000000E+00
-3.167000E-01,+1.800000E-02,+6.000000E-01
-3.166000E-01,+1.800000E-02,+4.000000E-01
-3.165000E-01,+1.000000E-02,+4.000000E-01
-3.164000E-01,+6.000000E-03,+4.000000E-01
-3.163000E-01,-6.000000E-03,+0.000000E+00
-3.162000E-01,-6.000000E-03,-2.000000E-01
-3.161000E-01,-1.800000E-02,-2.000000E-01
-3.160000E-01,-1.800000E-02,-4.000000E-01
-3.159000E-01,-2.600000E-02,-8.000000E-01
-3.158000E-01,-3.000000E-02,-1.000000E+00
-3.157000E-01,-3.800000E-02,-1.000000E+00
-3.156000E-01,-4.200000E-02,-1.400000E+00
-3.155000E-01,-4.600000E-02,-1.400000E+00
-3.154000E-01,-5.000000E-02,-1.600000E+00
-3.153000E-01,-5.800000E-02,-1.800000E+00
-3.152000E-01,-6.600000E-02,-2.000000E+00
-3.151000E-01,-6.600000E-02,-2.200000E+00
-3.150000E-01,-7.000000E-02,-2.600000E+00
-3.149000E-01,-8.200000E-02,-2.800000E+00
-3.148000E-01,-8.600000E-02,-2.800000E+00
-3.147000E-01,-9.400000E-02,-3.000000E+00
-3.146000E-01,-9.800000E-02,-3.200000E+00
-3.145000E-01,-1.060000E-01,-3.400000E+00
-3.144000E-01,-1.060000E-01,-3.400000E+00
-3.143000E-01,-1.060000E-01,-3.600000E+00
-3.142000E-01,-1.180000E-01,-3.800000E+00
-3.141000E-01,-1.180000E-01,-4.200000E+00
-3.140000E-01,-1.260000E-01,-4.200000E+00
-3.139000E-01,-1.340000E-01,-4.400000E+00
-3.138000E-01,-1.300000E-01,-4.800000E+00
-3.137000E-01,-1.420000E-01,-4.800000E+00
-3.136000E-01,-1.420000E-01,-5.000000E+00
-3.135000E-01,-1.460000E-01,-5.200000E+00
-3.134000E-01,-1.460000E-01,-5.400000E+00
-3.133000E-01,-1.540000E-01,-5.600000E+00
-3.132000E-01,-1.540000E-01,-5.600000E+00
-3.131000E-01,-1.620000E-01,-5.600000E+00
-3.130000E-01,-1.620000E-01,-5.800000E+00
-3.129000E-01,-1.660000E-01,-6.200000E+00
-3.128000E-01,-1.700000E-01,-6.000000E+00
-3.127000E-01,-1.700000E-01,-6.400000E+00
-3.126000E-01,-1.740000E-01,-6.400000E+00
-3.125000E-01,-1.740000E-01,-6.600000E+00
-3.124000E-01,-1.780000E-01,-6.800000E+00
-3.123000E-01,-1.860000E-01,-6.800000E+00
-3.122000E-01,-1.860000E-01,-7.000000E+00
-3.121000E-01,-1.900000E-01,-7.200000E+00
-3.120000E-01,-1.900000E-01,-7.400000E+00
-3.119000E-01,-1.900000E-01,-7.400000E+00
-3.118000E-01,-1.980000E-01,-7.400000E+00
-3.117000E-01,-1.980000E-01,-7.600000E+00
-3.116000E-01,-1.980000E-01,-7.800000E+00
-3.115000E-01,-2.020000E-01,-7.800000E+00
-3.114000E-01,-1.980000E-01,-8.000000E+00
-3.113000E-01,-2.020000E-01,-8.000000E+00
-3.112000E-01,-2.060000E-01,-8.400001E+00
-3.111000E-01,-2.060000E-01,-8.200000E+00
-3.110000E-01,-2.100000E-01,-8.400001E+00
-3.109000E-01,-2.100000E-01,-8.400001E+00
-3.108000E-01,-2.100000E-01,-8.600000E+00
-3.107000E-01,-2.140000E-01,-8.600000E+00
-3.106000E-01,-2.140000E-01,-8.800000E+00
-3.105000E-01,-2.180000E-01,-9.000000E+00
-3.104000E-01,-2.180000E-01,-9.000000E+00
-3.103000E-01,-2.180000E-01,-9.000000E+00
-3.102000E-01,-2.140000E-01,-9.400001E+00
-3.101000E-01,-2.180000E-01,-9.200000E+00
-3.100000E-01,-2.220000E-01,-9.200000E+00
-3.099000E-01,-2.220000E-01,-9.400001E+00
-3.098000E-01,-2.220000E-01,-9.400001E+00
-3.097000E-01,-2.180000E-01,-9.400001E+00
-3.096000E-01,-2.260000E-01,-9.600000E+00
-3.095000E-01,-2.260000E-01,-9.600000E+00
-3.094000E-01,-2.260000E-01,-9.800000E+00
-3.093000E-01,-2.260000E-01,-9.600000E+00
-3.092000E-01,-2.260000E-01,-9.800000E+00
-3.091000E-01,-2.260000E-01,-1.000000E+01
-3.090000E-01,-2.260000E-01,-9.800000E+00
-3.089000E-01,-2.300000E-01,-9.800000E+00
-3.088000E-01,-2.300000E-01,-9.800000E+00
-3.087000E-01,-2.300000E-01,-9.800000E+00
-3.086000E-01,-2.300000E-01,-9.800000E+00
-3.085000E-01,-2.300000E-01,-1.000000E+01
-3.084000E-01,-2.300000E-01,-9.800000E+00
-3.083000E-01,-2.340000E-01,-1.000000E+01
-3.082000E-01,-2.300000E-01,-1.000000E+01
-3.081000E-01,-2.300000E-01,-1.000000E+01
-3.080000E-01,-2.300000E-01,-1.000000E+01
-3.079000E-01,-2.300000E-01,-1.000000E+01
-3.078000E-01,-2.300000E-01,-1.000000E+01
-3.077000E-01,-2.300000E-01,-1.000000E+01
-3.076000E-01,-2.300000E-01,-1.000000E+01
-3.075000E-01,-2.300000E-01,-1.000000E+01
-3.074000E-01,-2.300000E-01,-1.020000E+01
-3.073000E-01,-2.300000E-01,-9.800000E+00
-3.072000E-01,-2.260000E-01,-9.800000E+00
-3.071000E-01,-2.300000E-01,-1.000000E+01
-3.070000E-01,-2.260000E-01,-9.800000E+00
-3.069000E-01,-2.180000E-01,-9.800000E+00
-3.068000E-01,-2.260000E-01,-9.600000E+00
-3.067000E-01,-2.220000E-01,-9.800000E+00
-3.066000E-01,-2.260000E-01,-9.600000E+00
-3.065000E-01,-2.220000E-01,-9.600000E+00
-3.064000E-01,-2.220000E-01,-9.400001E+00
-3.063000E-01,-2.220000E-01,-9.400001E+00
-3.062000E-01,-2.220000E-01,-9.400001E+00
-3.061000E-01,-2.220000E-01,-9.200000E+00
-3.060000E-01,-2.180000E-01,-9.200000E+00
-3.059000E-01,-2.180000E-01,-9.200000E+00
-3.058000E-01,-2.180000E-01,-9.000000E+00
-3.057000E-01,-2.140000E-01,-9.000000E+00
-3.056000E-01,-2.140000E-01,-9.200000E+00
-3.055000E-01,-2.060000E-01,-8.800000E+00
-3.054000E-01,-2.100000E-01,-8.800000E+00
-3.053000E-01,-2.100000E-01,-8.800000E+00
-3.052000E-01,-2.060000E-01,-8.800000E+00
-3.051000E-01,-2.060000E-01,-8.400001E+00
-3.050000E-01,-2.060000E-01,-8.400001E+00
-3.049000E-01,-2.060000E-01,-8.600000E+00
-3.048000E-01,-1.980000E-01,-8.400001E+00
-3.047000E-01,-2.020000E-01,-8.000000E+00
-3.046000E-01,-1.980000E-01,-8.000000E+00
-3.045000E-01,-1.980000E-01,-7.800000E+00
-3.044000E-01,-1.940000E-01,-7.800000E+00
-3.043000E-01,-1.900000E-01,-7.600000E+00
-3.042000E-01,-1.900000E-01,-7.400000E+00
-3.041000E-01,-1.860000E-01,-7.600000E+00
-3.040000E-01,-1.860000E-01,-7.200000E+00
-3.039000E-01,-1.860000E-01,-7.400000E+00
-3.038000E-01,-1.780000E-01,-7.000000E+00
-3.037000E-01,-1.780000E-01,-6.800000E+00
-3.036000E-01,-1.740000E-01,-6.600000E+00
-3.035000E-01,-1.700000E-01,-6.600000E+00
-3.034000E-01,-1.700000E-01,-6.400000E+00
