PHYS/PHYS 3200Y/Lab 2/Lab 2B/real data/SDS00026.csv

Record Length,Analog:7000,
Sample Interval,Analog:2.000000E-08,
Vertical Units,CH1:V, CH2:V,,
Vertical Scale,CH1:+5.000000E-02, CH2:+1.000000E+00,,
Vertical Offset,CH1:+1.000000E-03, CH2:+0.000000E+00,,
Horizontal Units,us,
Horizontal Scale,+1.000000E+01,
Model Number,SDS1202X-E,
Serial Number,SDS1EEFX803349,
Software Version,1.3.27,
Source,CH1,CH2
Second,Value,Value
-7.000000E-05,-5.000000E-03,-1.120000E+00
-6.998000E-05,-5.000000E-03,-1.080000E+00
-6.996000E-05,-1.000000E-03,-1.040000E+00
-6.994000E-05,-1.000000E-03,-1.080000E+00
-6.992000E-05,-1.000000E-03,-1.040000E+00
-6.990000E-05,+1.000000E-03,-1.040000E+00
-6.988000E-05,-1.000000E-03,-1.000000E+00
-6.986000E-05,-1.000000E-03,-1.000000E+00
-6.984000E-05,+3.000000E-03,-1.000000E+00
-6.982000E-05,+3.000000E-03,-9.600000E-01
-6.980000E-05,+3.000000E-03,-1.000000E+00
-6.978000E-05,+5.000000E-03,-9.600000E-01
-6.976000E-05,+3.000000E-03,-9.200000E-01
-6.974000E-05,+5.000000E-03,-8.800000E-01
-6.972000E-05,+7.000000E-03,-8.800000E-01
-6.970000E-05,+7.000000E-03,-8.800000E-01
-6.968000E-05,+7.000000E-03,-8.400000E-01
-6.966000E-05,+1.100000E-02,-8.400000E-01
-6.964000E-05,+1.100000E-02,-8.400000E-01
-6.962000E-05,+1.100000E-02,-8.000000E-01
-6.960000E-05,+1.100000E-02,-8.000000E-01
-6.958000E-05,+1.300000E-02,-7.600000E-01
-6.956000E-05,+1.100000E-02,-7.600000E-01
-6.954000E-05,+1.500000E-02,-7.200000E-01
-6.952000E-05,+1.300000E-02,-7.200000E-01
-6.950000E-05,+1.700000E-02,-7.200000E-01
-6.948000E-05,+1.700000E-02,-7.200000E-01
-6.946000E-05,+1.500000E-02,-7.200000E-01
-6.944000E-05,+1.500000E-02,-6.400000E-01
-6.942000E-05,+1.900000E-02,-6.800000E-01
-6.940000E-05,+1.700000E-02,-6.800000E-01
-6.938000E-05,+2.100000E-02,-6.000000E-01
-6.936000E-05,+2.100000E-02,-6.400000E-01
-6.934000E-05,+1.900000E-02,-6.000000E-01
-6.932000E-05,+2.100000E-02,-6.000000E-01
-6.930000E-05,+2.100000E-02,-5.600000E-01
-6.928000E-05,+2.100000E-02,-5.200000E-01
-6.926000E-05,+2.100000E-02,-5.200000E-01
-6.924000E-05,+2.300000E-02,-5.200000E-01
-6.922000E-05,+2.300000E-02,-4.800000E-01
-6.920000E-05,+2.500000E-02,-4.400000E-01
-6.918000E-05,+2.300000E-02,-4.800000E-01
-6.916000E-05,+2.300000E-02,-4.400000E-01
-6.914000E-05,+2.700000E-02,-4.400000E-01
-6.912000E-05,+2.900000E-02,-4.000000E-01
-6.910000E-05,+2.900000E-02,-3.600000E-01
-6.908000E-05,+2.700000E-02,-3.600000E-01
-6.906000E-05,+2.700000E-02,-3.600000E-01
-6.904000E-05,+2.700000E-02,-3.200000E-01
-6.902000E-05,+3.100000E-02,-2.800000E-01
-6.900000E-05,+3.300000E-02,-2.800000E-01
-6.898000E-05,+3.300000E-02,-2.800000E-01
-6.896000E-05,+3.300000E-02,-2.400000E-01
-6.894000E-05,+3.100000E-02,-2.400000E-01
-6.892000E-05,+3.100000E-02,-2.000000E-01
-6.890000E-05,+3.300000E-02,-2.400000E-01
-6.888000E-05,+3.300000E-02,-2.000000E-01
-6.886000E-05,+3.700000E-02,-2.000000E-01
-6.884000E-05,+3.500000E-02,-1.200000E-01
-6.882000E-05,+3.900000E-02,-1.200000E-01
-6.880000E-05,+4.100000E-02,-8.000000E-02
-6.878000E-05,+3.900000E-02,-8.000000E-02
-6.876000E-05,+3.500000E-02,-4.000000E-02
-6.874000E-05,+3.900000E-02,-4.000000E-02
-6.872000E-05,+4.100000E-02,-8.000000E-02
-6.870000E-05,+4.300001E-02,-4.000000E-02
-6.868000E-05,+4.100000E-02,+0.000000E+00
-6.866000E-05,+4.100000E-02,+0.000000E+00
-6.864000E-05,+4.100000E-02,+0.000000E+00
-6.862000E-05,+3.900000E-02,+8.000000E-02
-6.860000E-05,+4.100000E-02,+4.000000E-02
-6.858000E-05,+4.100000E-02,+1.200000E-01
-6.856000E-05,+4.500001E-02,+1.200000E-01
-6.854000E-05,+4.500001E-02,+1.200000E-01
-6.852000E-05,+4.500001E-02,+1.200000E-01
-6.850000E-05,+4.300001E-02,+2.000000E-01
-6.848000E-05,+4.700000E-02,+1.600000E-01
-6.846000E-05,+4.700000E-02,+1.600000E-01
-6.844000E-05,+4.500001E-02,+2.000000E-01
-6.842000E-05,+4.700000E-02,+2.400000E-01
-6.840000E-05,+4.700000E-02,+2.400000E-01
-6.838000E-05,+4.700000E-02,+2.400000E-01
-6.836000E-05,+4.700000E-02,+2.800000E-01
-6.834000E-05,+4.700000E-02,+3.200000E-01
-6.832000E-05,+4.900000E-02,+3.600000E-01
-6.830000E-05,+5.100000E-02,+3.600000E-01
-6.828000E-05,+5.300000E-02,+3.600000E-01
-6.826000E-05,+5.100000E-02,+3.600000E-01
-6.824000E-05,+5.100000E-02,+4.000000E-01
-6.822000E-05,+5.300000E-02,+4.400000E-01
-6.820000E-05,+5.300000E-02,+4.000000E-01
-6.818000E-05,+5.300000E-02,+4.800000E-01
-6.816000E-05,+5.300000E-02,+4.400000E-01
-6.814000E-05,+5.300000E-02,+4.800000E-01
-6.812000E-05,+5.500000E-02,+4.800000E-01
-6.810000E-05,+5.500000E-02,+4.800000E-01
-6.808000E-05,+5.500000E-02,+5.200000E-01
-6.806000E-05,+5.500000E-02,+5.200000E-01
-6.804000E-05,+5.500000E-02,+5.600000E-01
-6.802000E-05,+5.300000E-02,+5.600000E-01
-6.800000E-05,+5.300000E-02,+6.000000E-01
-6.798000E-05,+5.500000E-02,+6.000000E-01
-6.796000E-05,+5.500000E-02,+6.000000E-01
-6.794000E-05,+5.500000E-02,+6.400000E-01
-6.792000E-05,+5.700000E-02,+6.800000E-01
-6.790000E-05,+5.700000E-02,+6.800000E-01
-6.788000E-05,+5.700000E-02,+6.800000E-01
-6.786000E-05,+5.700000E-02,+6.800000E-01
-6.784000E-05,+5.700000E-02,+7.200000E-01
-6.782000E-05,+5.500000E-02,+7.600000E-01
-6.780000E-05,+5.700000E-02,+8.000000E-01
-6.778000E-05,+5.700000E-02,+7.600000E-01
-6.776000E-05,+5.900000E-02,+7.600000E-01
-6.774000E-05,+5.700000E-02,+8.000000E-01
-6.772000E-05,+5.900000E-02,+8.000000E-01
-6.770000E-05,+5.900000E-02,+8.000000E-01
-6.768000E-05,+5.700000E-02,+8.400000E-01
-6.766000E-05,+5.900000E-02,+8.400000E-01
-6.764000E-05,+5.900000E-02,+8.800000E-01
-6.762000E-05,+6.100000E-02,+8.800000E-01
-6.760000E-05,+6.100000E-02,+8.800000E-01
-6.758000E-05,+6.100000E-02,+9.600000E-01
-6.756000E-05,+6.100000E-02,+9.200000E-01
-6.754000E-05,+6.100000E-02,+9.600000E-01
-6.752000E-05,+6.100000E-02,+9.600000E-01
-6.750000E-05,+6.100000E-02,+9.600000E-01
-6.748000E-05,+5.900000E-02,+1.000000E+00
-6.746000E-05,+6.100000E-02,+1.000000E+00
-6.744000E-05,+5.900000E-02,+1.000000E+00
-6.742000E-05,+5.900000E-02,+1.040000E+00
-6.740000E-05,+6.100000E-02,+1.080000E+00
-6.738000E-05,+6.100000E-02,+1.040000E+00
-6.736000E-05,+6.100000E-02,+1.040000E+00
-6.734000E-05,+6.100000E-02,+1.080000E+00
-6.732000E-05,+5.900000E-02,+1.080000E+00
-6.730000E-05,+6.100000E-02,+1.080000E+00
-6.728000E-05,+6.100000E-02,+1.120000E+00
-6.726000E-05,+5.700000E-02,+1.120000E+00
-6.724000E-05,+5.900000E-02,+1.120000E+00
-6.722000E-05,+5.700000E-02,+1.160000E+00
-6.720000E-05,+6.100000E-02,+1.160000E+00
-6.718000E-05,+5.700000E-02,+1.160000E+00
-6.716000E-05,+5.900000E-02,+1.200000E+00
-6.714000E-05,+5.900000E-02,+1.160000E+00
-6.712000E-05,+5.900000E-02,+1.200000E+00
-6.710000E-05,+5.700000E-02,+1.200000E+00
-6.708000E-05,+5.900000E-02,+1.200000E+00
-6.706000E-05,+5.900000E-02,+1.240000E+00
-6.704000E-05,+5.700000E-02,+1.280000E+00
-6.702000E-05,+5.900000E-02,+1.240000E+00
-6.700000E-05,+5.900000E-02,+1.240000E+00
-6.698000E-05,+5.900000E-02,+1.280000E+00
-6.696000E-05,+5.700000E-02,+1.280000E+00
-6.694000E-05,+5.700000E-02,+1.280000E+00
-6.692000E-05,+5.900000E-02,+1.280000E+00
-6.690000E-05,+5.900000E-02,+1.280000E+00
-6.688000E-05,+5.700000E-02,+1.280000E+00
-6.686000E-05,+5.700000E-02,+1.320000E+00
-6.684000E-05,+5.500000E-02,+1.320000E+00
-6.682000E-05,+5.500000E-02,+1.320000E+00
-6.680000E-05,+5.700000E-02,+1.320000E+00
-6.678000E-05,+5.700000E-02,+1.360000E+00
-6.676000E-05,+5.700000E-02,+1.360000E+00
-6.674000E-05,+5.500000E-02,+1.360000E+00
-6.672000E-05,+5.700000E-02,+1.360000E+00
-6.670000E-05,+5.300000E-02,+1.360000E+00
-6.668000E-05,+5.500000E-02,+1.360000E+00
-6.666000E-05,+5.500000E-02,+1.400000E+00
-6.664000E-05,+5.300000E-02,+1.400000E+00
-6.662000E-05,+5.300000E-02,+1.400000E+00
-6.660000E-05,+5.300000E-02,+1.400000E+00
-6.658000E-05,+5.300000E-02,+1.400000E+00
-6.656000E-05,+5.100000E-02,+1.400000E+00
-6.654000E-05,+5.100000E-02,+1.400000E+00
-6.652000E-05,+4.900000E-02,+1.440000E+00
-6.650000E-05,+5.300000E-02,+1.440000E+00
-6.648000E-05,+4.900000E-02,+1.440000E+00
-6.646000E-05,+4.900000E-02,+1.440000E+00
-6.644000E-05,+4.500001E-02,+1.440000E+00
-6.642000E-05,+4.900000E-02,+1.440000E+00
-6.640000E-05,+4.700000E-02,+1.440000E+00
-6.638000E-05,+4.700000E-02,+1.440000E+00
-6.636000E-05,+4.900000E-02,+1.440000E+00
-6.634000E-05,+4.700000E-02,+1.440000E+00
-6.632000E-05,+4.900000E-02,+1.440000E+00
-6.630000E-05,+4.500001E-02,+1.440000E+00
-6.628000E-05,+4.500001E-02,+1.440000E+00
-6.626000E-05,+4.700000E-02,+1.440000E+00
-6.624000E-05,+4.700000E-02,+1.440000E+00
-6.622000E-05,+4.700000E-02,+1.440000E+00
-6.620000E-05,+4.500001E-02,+1.480000E+00
-6.618000E-05,+4.500001E-02,+1.480000E+00
-6.616000E-05,+4.500001E-02,+1.480000E+00
-6.614000E-05,+4.100000E-02,+1.440000E+00
-6.612000E-05,+4.100000E-02,+1.480000E+00
-6.610000E-05,+4.100000E-02,+1.440000E+00
-6.608000E-05,+4.100000E-02,+1.480000E+00
-6.606000E-05,+4.300001E-02,+1.480000E+00
-6.604000E-05,+3.900000E-02,+1.480000E+00
-6.602000E-05,+4.100000E-02,+1.440000E+00
-6.600000E-05,+3.700000E-02,+1.440000E+00
-6.598000E-05,+3.700000E-02,+1.440000E+00
-6.596000E-05,+3.900000E-02,+1.440000E+00
-6.594000E-05,+3.500000E-02,+1.440000E+00
-6.592000E-05,+3.700000E-02,+1.440000E+00
-6.590000E-05,+3.500000E-02,+1.440000E+00
-6.588000E-05,+3.500000E-02,+1.440000E+00
-6.586000E-05,+3.100000E-02,+1.440000E+00
-6.584000E-05,+3.300000E-02,+1.440000E+00
-6.582000E-05,+3.500000E-02,+1.440000E+00
-6.580000E-05,+3.300000E-02,+1.440000E+00
-6.578000E-05,+3.300000E-02,+1.440000E+00
-6.576000E-05,+3.100000E-02,+1.440000E+00
-6.574000E-05,+2.900000E-02,+1.400000E+00
-6.572000E-05,+3.100000E-02,+1.400000E+00
-6.570000E-05,+3.100000E-02,+1.400000E+00
-6.568000E-05,+2.700000E-02,+1.400000E+00
-6.566000E-05,+2.900000E-02,+1.400000E+00
-6.564000E-05,+2.700000E-02,+1.400000E+00
-6.562000E-05,+2.700000E-02,+1.400000E+00
-6.560000E-05,+2.500000E-02,+1.360000E+00
-6.558000E-05,+2.700000E-02,+1.360000E+00
-6.556000E-05,+2.500000E-02,+1.360000E+00
-6.554000E-05,+2.300000E-02,+1.360000E+00
-6.552000E-05,+2.500000E-02,+1.360000E+00
-6.550000E-05,+2.300000E-02,+1.360000E+00
-6.548000E-05,+2.100000E-02,+1.320000E+00
-6.546000E-05,+2.100000E-02,+1.320000E+00
-6.544000E-05,+2.100000E-02,+1.320000E+00
-6.542000E-05,+2.100000E-02,+1.320000E+00
-6.540000E-05,+2.100000E-02,+1.320000E+00
-6.538000E-05,+1.900000E-02,+1.280000E+00
-6.536000E-05,+1.900000E-02,+1.280000E+00
-6.534000E-05,+1.500000E-02,+1.280000E+00
-6.532000E-05,+1.500000E-02,+1.280000E+00
-6.530000E-05,+1.500000E-02,+1.280000E+00
-6.528000E-05,+1.500000E-02,+1.240000E+00
-6.526000E-05,+1.500000E-02,+1.240000E+00
-6.524000E-05,+1.300000E-02,+1.240000E+00
-6.522000E-05,+1.100000E-02,+1.240000E+00
-6.520000E-05,+1.100000E-02,+1.200000E+00
-6.518000E-05,+1.100000E-02,+1.200000E+00
-6.516000E-05,+1.100000E-02,+1.200000E+00
-6.514000E-05,+7.000000E-03,+1.200000E+00
-6.512000E-05,+9.000001E-03,+1.200000E+00
-6.510000E-05,+7.000000E-03,+1.160000E+00
-6.508000E-05,+9.000001E-03,+1.160000E+00
-6.506000E-05,+5.000000E-03,+1.120000E+00
-6.504000E-05,+3.000000E-03,+1.120000E+00
-6.502000E-05,+5.000000E-03,+1.120000E+00
-6.500000E-05,+3.000000E-03,+1.080000E+00
-6.498000E-05,+3.000000E-03,+1.120000E+00
-6.496000E-05,+3.000000E-03,+1.080000E+00
-6.494000E-05,+1.000000E-03,+1.080000E+00
-6.492000E-05,+3.000000E-03,+1.040000E+00
-6.490000E-05,+1.000000E-03,+1.040000E+00
-6.488000E-05,-1.000000E-03,+1.000000E+00
-6.486000E-05,-1.000000E-03,+1.000000E+00
-6.484000E-05,-1.000000E-03,+1.000000E+00
-6.482000E-05,-1.000000E-03,+9.600000E-01
-6.480000E-05,-3.000000E-03,+9.600000E-01
-6.478000E-05,-3.000000E-03,+9.600000E-01
-6.476000E-05,-5.000000E-03,+9.200000E-01
-6.474000E-05,-3.000000E-03,+9.200000E-01
-6.472000E-05,-7.000000E-03,+9.200000E-01
-6.470000E-05,-7.000000E-03,+8.800000E-01
-6.468000E-05,-9.000001E-03,+8.800000E-01
-6.466000E-05,-1.100000E-02,+8.400000E-01
-6.464000E-05,-1.100000E-02,+8.400000E-01
-6.462000E-05,-9.000001E-03,+8.400000E-01
-6.460000E-05,-1.100000E-02,+8.000000E-01
-6.458000E-05,-1.300000E-02,+8.000000E-01
-6.456000E-05,-1.300000E-02,+8.400000E-01
-6.454000E-05,-1.500000E-02,+7.600000E-01
-6.452000E-05,-1.500000E-02,+7.600000E-01
-6.450000E-05,-1.300000E-02,+7.600000E-01
-6.448000E-05,-1.500000E-02,+7.200000E-01
-6.446000E-05,-1.700000E-02,+7.200000E-01
-6.444000E-05,-1.700000E-02,+6.800000E-01
-6.442000E-05,-1.700000E-02,+6.800000E-01
-6.440000E-05,-1.700000E-02,+6.400000E-01
-6.438000E-05,-1.900000E-02,+6.400000E-01
-6.436000E-05,-1.700000E-02,+6.800000E-01
-6.434000E-05,-1.700000E-02,+6.400000E-01
-6.432000E-05,-1.900000E-02,+6.000000E-01
-6.430000E-05,-2.300000E-02,+6.000000E-01
-6.428000E-05,-2.100000E-02,+6.000000E-01
-6.426000E-05,-2.300000E-02,+5.600000E-01
-6.424000E-05,-2.100000E-02,+5.200000E-01
-6.422000E-05,-2.300000E-02,+5.200000E-01
-6.420000E-05,-2.500000E-02,+4.800000E-01
-6.418000E-05,-2.500000E-02,+4.800000E-01
-6.416000E-05,-2.300000E-02,+4.800000E-01
-6.414000E-05,-2.300000E-02,+4.400000E-01
-6.412000E-05,-2.700000E-02,+4.000000E-01
-6.410000E-05,-2.900000E-02,+4.400000E-01
-6.408000E-05,-2.900000E-02,+4.000000E-01
-6.406000E-05,-2.700000E-02,+4.000000E-01
-6.404000E-05,-2.900000E-02,+3.600000E-01
-6.402000E-05,-2.900000E-02,+3.200000E-01
-6.400000E-05,-3.100000E-02,+3.600000E-01
-6.398000E-05,-3.100000E-02,+2.800000E-01
-6.396000E-05,-3.300000E-02,+2.800000E-01
-6.394000E-05,-3.100000E-02,+2.400000E-01
-6.392000E-05,-3.500000E-02,+2.400000E-01
-6.390000E-05,-3.300000E-02,+2.000000E-01
-6.388000E-05,-3.700000E-02,+2.400000E-01
-6.386000E-05,-3.300000E-02,+2.400000E-01
-6.384000E-05,-3.700000E-02,+2.000000E-01
-6.382000E-05,-3.900000E-02,+1.200000E-01
-6.380000E-05,-3.900000E-02,+1.200000E-01
-6.378000E-05,-3.700000E-02,+1.200000E-01
-6.376000E-05,-3.900000E-02,+1.200000E-01
-6.374000E-05,-3.900000E-02,+1.200000E-01
-6.372000E-05,-4.100000E-02,+4.000000E-02
-6.370000E-05,-4.100000E-02,+4.000000E-02
-6.368000E-05,-3.900000E-02,+4.000000E-02
-6.366000E-05,-3.700000E-02,+4.000000E-02
-6.364000E-05,-4.100000E-02,+0.000000E+00
-6.362000E-05,-4.300000E-02,-4.000000E-02
-6.360000E-05,-4.300000E-02,-4.000000E-02
-6.358000E-05,-4.100000E-02,-4.000000E-02
-6.356000E-05,-4.300000E-02,-4.000000E-02
-6.354000E-05,-4.300000E-02,-8.000000E-02
-6.352000E-05,-4.500000E-02,-1.200000E-01
-6.350000E-05,-4.500000E-02,-1.600000E-01
-6.348000E-05,-4.500000E-02,-1.200000E-01
-6.346000E-05,-4.500000E-02,-1.600000E-01
-6.344000E-05,-4.700000E-02,-1.600000E-01
-6.342000E-05,-4.700000E-02,-2.400000E-01
-6.340000E-05,-4.900000E-02,-2.400000E-01
-6.338000E-05,-4.900000E-02,-2.000000E-01
-6.336000E-05,-4.900000E-02,-2.400000E-01
-6.334000E-05,-4.900000E-02,-2.800000E-01
-6.332000E-05,-4.900000E-02,-3.200000E-01
-6.330000E-05,-5.100000E-02,-3.200000E-01
-6.328000E-05,-5.100000E-02,-3.200000E-01
-6.326000E-05,-5.100000E-02,-3.200000E-01
-6.324000E-05,-5.300000E-02,-3.600000E-01
-6.322000E-05,-5.300000E-02,-4.000000E-01
-6.320000E-05,-5.300000E-02,-3.600000E-01
-6.318000E-05,-5.500000E-02,-4.000000E-01
-6.316000E-05,-5.300000E-02,-4.400000E-01
-6.314000E-05,-5.300000E-02,-4.400000E-01
-6.312000E-05,-5.300000E-02,-4.800000E-01
-6.310000E-05,-5.300000E-02,-4.800000E-01
-6.308000E-05,-5.500000E-02,-5.200000E-01
-6.306000E-05,-5.700000E-02,-5.600000E-01
-6.304000E-05,-5.500000E-02,-5.200000E-01
-6.302000E-05,-5.500000E-02,-5.200000E-01
-6.300000E-05,-5.500000E-02,-5.600000E-01
-6.298000E-05,-5.500000E-02,-6.000000E-01
-6.296000E-05,-5.700000E-02,-6.000000E-01
-6.294000E-05,-5.900000E-02,-6.000000E-01
-6.292000E-05,-5.500000E-02,-6.400000E-01
-6.290000E-05,-5.900000E-02,-6.400000E-01
-6.288000E-05,-5.700000E-02,-6.400000E-01
-6.286000E-05,-5.700000E-02,-7.200000E-01
-6.284000E-05,-5.700000E-02,-7.200000E-01
-6.282000E-05,-5.900000E-02,-7.600000E-01
-6.280000E-05,-5.900000E-02,-7.600000E-01
-6.278000E-05,-5.900000E-02,-7.600000E-01
-6.276000E-05,-6.100000E-02,-8.000000E-01
-6.274000E-05,-5.900000E-02,-8.000000E-01
-6.272000E-05,-6.100000E-02,-8.400000E-01
-6.270000E-05,-5.900000E-02,-8.400000E-01
-6.268000E-05,-5.900000E-02,-8.400000E-01
-6.266000E-05,-6.100000E-02,-8.400000E-01
-6.264000E-05,-6.100000E-02,-8.400000E-01
-6.262000E-05,-6.100000E-02,-9.200000E-01
-6.260000E-05,-6.300000E-02,-8.800000E-01
-6.258000E-05,-6.300000E-02,-8.800000E-01
-6.256000E-05,-6.300000E-02,-9.200000E-01
-6.254000E-05,-6.300000E-02,-9.200000E-01
-6.252000E-05,-6.100000E-02,-9.200000E-01
-6.250000E-05,-6.300000E-02,-9.600000E-01
-6.248000E-05,-6.300000E-02,-9.600000E-01
-6.246000E-05,-6.100000E-02,-1.000000E+00
-6.244000E-05,-6.100000E-02,-1.000000E+00
-6.242000E-05,-6.100000E-02,-1.040000E+00
-6.240000E-05,-6.100000E-02,-1.040000E+00
-6.238000E-05,-6.100000E-02,-1.040000E+00
-6.236000E-05,-6.100000E-02,-1.040000E+00
-6.234000E-05,-6.100000E-02,-1.040000E+00
-6.232000E-05,-6.100000E-02,-1.080000E+00
-6.230000E-05,-6.100000E-02,-1.120000E+00
-6.228000E-05,-6.100000E-02,-1.080000E+00
-6.226000E-05,-5.900000E-02,-1.080000E+00
-6.224000E-05,-5.900000E-02,-1.120000E+00
-6.222000E-05,-6.100000E-02,-1.120000E+00
-6.220000E-05,-5.900000E-02,-1.120000E+00
-6.218000E-05,-5.900000E-02,-1.200000E+00
-6.216000E-05,-5.900000E-02,-1.160000E+00
-6.214000E-05,-5.900000E-02,-1.200000E+00
-6.212000E-05,-5.900000E-02,-1.200000E+00
-6.210000E-05,-5.700000E-02,-1.200000E+00
-6.208000E-05,-5.700000E-02,-1.200000E+00
-6.206000E-05,-6.100000E-02,-1.200000E+00
-6.204000E-05,-5.700000E-02,-1.280000E+00
-6.202000E-05,-5.900000E-02,-1.240000E+00
-6.200000E-05,-5.700000E-02,-1.280000E+00
-6.198000E-05,-5.900000E-02,-1.280000E+00
-6.196000E-05,-5.900000E-02,-1.280000E+00
-6.194000E-05,-5.900000E-02,-1.280000E+00
-6.192000E-05,-5.900000E-02,-1.280000E+00
-6.190000E-05,-5.700000E-02,-1.280000E+00
-6.188000E-05,-5.500000E-02,-1.280000E+00
-6.186000E-05,-5.700000E-02,-1.320000E+00
-6.184000E-05,-5.700000E-02,-1.320000E+00
-6.182000E-05,-5.500000E-02,-1.320000E+00
-6.180000E-05,-5.700000E-02,-1.320000E+00
-6.178000E-05,-5.500000E-02,-1.320000E+00
-6.176000E-05,-5.500000E-02,-1.360000E+00
-6.174000E-05,-5.500000E-02,-1.320000E+00
-6.172000E-05,-5.500000E-02,-1.360000E+00
-6.170000E-05,-5.500000E-02,-1.400000E+00
-6.168000E-05,-5.300000E-02,-1.360000E+00
-6.166000E-05,-5.500000E-02,-1.360000E+00
-6.164000E-05,-5.300000E-02,-1.400000E+00
-6.162000E-05,-5.300000E-02,-1.360000E+00
-6.160000E-05,-5.300000E-02,-1.400000E+00
-6.158000E-05,-5.100000E-02,-1.400000E+00
-6.156000E-05,-5.100000E-02,-1.400000E+00
-6.154000E-05,-5.100000E-02,-1.400000E+00
-6.152000E-05,-4.900000E-02,-1.400000E+00
-6.150000E-05,-5.100000E-02,-1.400000E+00
-6.148000E-05,-4.900000E-02,-1.400000E+00
-6.146000E-05,-4.700000E-02,-1.480000E+00
-6.144000E-05,-4.900000E-02,-1.440000E+00
-6.142000E-05,-4.700000E-02,-1.440000E+00
-6.140000E-05,-4.900000E-02,-1.440000E+00
-6.138000E-05,-4.900000E-02,-1.480000E+00
-6.136000E-05,-4.900000E-02,-1.480000E+00
-6.134000E-05,-4.900000E-02,-1.440000E+00
-6.132000E-05,-4.700000E-02,-1.440000E+00
-6.130000E-05,-4.700000E-02,-1.440000E+00
-6.128000E-05,-4.500000E-02,-1.440000E+00
-6.126000E-05,-4.500000E-02,-1.440000E+00
-6.124000E-05,-4.300000E-02,-1.440000E+00
-6.122000E-05,-4.300000E-02,-1.440000E+00
-6.120000E-05,-4.300000E-02,-1.440000E+00
-6.118000E-05,-4.300000E-02,-1.480000E+00
-6.116000E-05,-4.300000E-02,-1.480000E+00
-6.114000E-05,-4.100000E-02,-1.440000E+00
-6.112000E-05,-4.300000E-02,-1.440000E+00
-6.110000E-05,-4.100000E-02,-1.440000E+00
-6.108000E-05,-3.900000E-02,-1.440000E+00
-6.106000E-05,-3.900000E-02,-1.440000E+00
-6.104000E-05,-4.100000E-02,-1.480000E+00
-6.102000E-05,-3.900000E-02,-1.440000E+00
-6.100000E-05,-3.700000E-02,-1.440000E+00
-6.098000E-05,-3.900000E-02,-1.440000E+00
-6.096000E-05,-3.500000E-02,-1.440000E+00
-6.094000E-05,-3.700000E-02,-1.440000E+00
-6.092000E-05,-3.300000E-02,-1.440000E+00
-6.090000E-05,-3.300000E-02,-1.440000E+00
-6.088000E-05,-3.500000E-02,-1.440000E+00
-6.086000E-05,-3.500000E-02,-1.440000E+00
-6.084000E-05,-3.100000E-02,-1.440000E+00
-6.082000E-05,-3.500000E-02,-1.400000E+00
-6.080000E-05,-3.300000E-02,-1.400000E+00
-6.078000E-05,-3.100000E-02,-1.440000E+00
-6.076000E-05,-3.100000E-02,-1.400000E+00
-6.074000E-05,-3.100000E-02,-1.400000E+00
-6.072000E-05,-3.100000E-02,-1.400000E+00
-6.070000E-05,-3.100000E-02,-1.400000E+00
-6.068000E-05,-2.900000E-02,-1.400000E+00
