PHYS/PHYS 3200Y/Lab 2B/real data/SDS00018.csv

Record Length,Analog:7000,
Sample Interval,Analog:4.000000E-07,
Vertical Units,CH1:V, CH2:V,,
Vertical Scale,CH1:+1.000000E-01, CH2:+5.000000E+00,,
Vertical Offset,CH1:+2.000000E-03, CH2:+0.000000E+00,,
Horizontal Units,us,
Horizontal Scale,+2.000000E+02,
Model Number,SDS1202X-E,
Serial Number,SDS1EEFX803349,
Software Version,1.3.27,
Source,CH1,CH2
Second,Value,Value
-1.400000E-03,-1.400000E-02,-1.000000E+00
-1.399600E-03,-1.000000E-02,-8.000000E-01
-1.399200E-03,-6.000000E-03,-4.000000E-01
-1.398800E-03,-2.000000E-03,-6.000000E-01
-1.398400E-03,+2.000000E-03,-4.000000E-01
-1.398000E-03,+6.000000E-03,-4.000000E-01
-1.397600E-03,+1.400000E-02,-2.000000E-01
-1.397200E-03,+1.400000E-02,+0.000000E+00
-1.396800E-03,+1.400000E-02,-2.000000E-01
-1.396400E-03,+1.800000E-02,+2.000000E-01
-1.396000E-03,+2.200000E-02,+2.000000E-01
-1.395600E-03,+2.600000E-02,+4.000000E-01
-1.395200E-03,+2.600000E-02,+6.000000E-01
-1.394800E-03,+3.400000E-02,+4.000000E-01
-1.394400E-03,+3.800000E-02,+6.000000E-01
-1.394000E-03,+4.200000E-02,+8.000000E-01
-1.393600E-03,+4.600000E-02,+8.000000E-01
-1.393200E-03,+4.200000E-02,+1.000000E+00
-1.392800E-03,+5.000000E-02,+1.000000E+00
-1.392400E-03,+5.000000E-02,+1.400000E+00
-1.392000E-03,+5.800000E-02,+1.400000E+00
-1.391600E-03,+5.800000E-02,+1.400000E+00
-1.391200E-03,+6.200000E-02,+1.600000E+00
-1.390800E-03,+6.600001E-02,+1.400000E+00
-1.390400E-03,+7.000001E-02,+1.600000E+00
-1.390000E-03,+7.000001E-02,+2.000000E+00
-1.389600E-03,+7.800001E-02,+2.000000E+00
-1.389200E-03,+7.800001E-02,+2.000000E+00
-1.388800E-03,+8.200001E-02,+2.400000E+00
-1.388400E-03,+8.200001E-02,+2.200000E+00
-1.388000E-03,+9.000001E-02,+2.400000E+00
-1.387600E-03,+9.400000E-02,+2.400000E+00
-1.387200E-03,+9.400000E-02,+2.600000E+00
-1.386800E-03,+1.020000E-01,+2.800000E+00
-1.386400E-03,+1.020000E-01,+3.000000E+00
-1.386000E-03,+1.060000E-01,+3.200000E+00
-1.385600E-03,+1.100000E-01,+3.000000E+00
-1.385200E-03,+1.140000E-01,+3.200000E+00
-1.384800E-03,+1.140000E-01,+3.200000E+00
-1.384400E-03,+1.140000E-01,+3.600000E+00
-1.384000E-03,+1.180000E-01,+3.400000E+00
-1.383600E-03,+1.260000E-01,+3.800000E+00
-1.383200E-03,+1.260000E-01,+3.600000E+00
-1.382800E-03,+1.300000E-01,+4.000000E+00
-1.382400E-03,+1.340000E-01,+4.000000E+00
-1.382000E-03,+1.300000E-01,+4.000000E+00
-1.381600E-03,+1.380000E-01,+4.200000E+00
-1.381200E-03,+1.380000E-01,+4.400000E+00
-1.380800E-03,+1.420000E-01,+4.400000E+00
-1.380400E-03,+1.460000E-01,+4.600000E+00
-1.380000E-03,+1.460000E-01,+4.600000E+00
-1.379600E-03,+1.500000E-01,+4.800000E+00
-1.379200E-03,+1.540000E-01,+5.000000E+00
-1.378800E-03,+1.580000E-01,+5.200000E+00
-1.378400E-03,+1.580000E-01,+5.000000E+00
-1.378000E-03,+1.580000E-01,+5.200000E+00
-1.377600E-03,+1.660000E-01,+5.400000E+00
-1.377200E-03,+1.660000E-01,+5.400000E+00
-1.376800E-03,+1.700000E-01,+5.600000E+00
-1.376400E-03,+1.700000E-01,+5.600000E+00
-1.376000E-03,+1.740000E-01,+5.800000E+00
-1.375600E-03,+1.740000E-01,+5.800000E+00
-1.375200E-03,+1.740000E-01,+6.200000E+00
-1.374800E-03,+1.740000E-01,+6.000000E+00
-1.374400E-03,+1.740000E-01,+6.200000E+00
-1.374000E-03,+1.820000E-01,+6.600000E+00
-1.373600E-03,+1.860000E-01,+6.400000E+00
-1.373200E-03,+1.860000E-01,+6.600000E+00
-1.372800E-03,+1.820000E-01,+6.800000E+00
-1.372400E-03,+1.900000E-01,+6.800000E+00
-1.372000E-03,+1.900000E-01,+6.800000E+00
-1.371600E-03,+1.940000E-01,+7.000000E+00
-1.371200E-03,+1.940000E-01,+7.200000E+00
-1.370800E-03,+1.940000E-01,+7.200000E+00
-1.370400E-03,+1.940000E-01,+7.200000E+00
-1.370000E-03,+1.980000E-01,+7.200000E+00
-1.369600E-03,+2.020000E-01,+7.400000E+00
-1.369200E-03,+2.060000E-01,+7.400000E+00
-1.368800E-03,+2.020000E-01,+7.600000E+00
-1.368400E-03,+2.060000E-01,+7.600000E+00
-1.368000E-03,+2.020000E-01,+7.800000E+00
-1.367600E-03,+2.060000E-01,+7.800000E+00
-1.367200E-03,+2.100000E-01,+8.000000E+00
-1.366800E-03,+2.100000E-01,+8.000000E+00
-1.366400E-03,+2.100000E-01,+8.200000E+00
-1.366000E-03,+2.100000E-01,+8.200000E+00
-1.365600E-03,+2.140000E-01,+8.200000E+00
-1.365200E-03,+2.100000E-01,+8.400001E+00
-1.364800E-03,+2.140000E-01,+8.400001E+00
-1.364400E-03,+2.180000E-01,+8.400001E+00
-1.364000E-03,+2.140000E-01,+8.600000E+00
-1.363600E-03,+2.140000E-01,+8.600000E+00
-1.363200E-03,+2.180000E-01,+8.800000E+00
-1.362800E-03,+2.180000E-01,+8.800000E+00
-1.362400E-03,+2.220000E-01,+8.800000E+00
-1.362000E-03,+2.180000E-01,+8.800000E+00
-1.361600E-03,+2.220000E-01,+8.800000E+00
-1.361200E-03,+2.220000E-01,+9.000000E+00
-1.360800E-03,+2.220000E-01,+9.000000E+00
-1.360400E-03,+2.260000E-01,+9.000000E+00
-1.360000E-03,+2.260000E-01,+9.200000E+00
-1.359600E-03,+2.260000E-01,+9.200000E+00
-1.359200E-03,+2.300000E-01,+9.200000E+00
-1.358800E-03,+2.260000E-01,+9.200000E+00
-1.358400E-03,+2.260000E-01,+9.400001E+00
-1.358000E-03,+2.260000E-01,+9.400001E+00
-1.357600E-03,+2.260000E-01,+9.400001E+00
-1.357200E-03,+2.260000E-01,+9.400001E+00
-1.356800E-03,+2.260000E-01,+9.400001E+00
-1.356400E-03,+2.300000E-01,+9.400001E+00
-1.356000E-03,+2.260000E-01,+9.400001E+00
-1.355600E-03,+2.260000E-01,+9.600000E+00
-1.355200E-03,+2.300000E-01,+9.600000E+00
-1.354800E-03,+2.260000E-01,+9.600000E+00
-1.354400E-03,+2.300000E-01,+9.600000E+00
-1.354000E-03,+2.300000E-01,+9.600000E+00
-1.353600E-03,+2.300000E-01,+9.600000E+00
-1.353200E-03,+2.300000E-01,+9.600000E+00
-1.352800E-03,+2.300000E-01,+9.600000E+00
-1.352400E-03,+2.300000E-01,+9.600000E+00
-1.352000E-03,+2.220000E-01,+9.600000E+00
-1.351600E-03,+2.260000E-01,+9.600000E+00
-1.351200E-03,+2.300000E-01,+9.600000E+00
-1.350800E-03,+2.300000E-01,+9.600000E+00
-1.350400E-03,+2.260000E-01,+9.600000E+00
-1.350000E-03,+2.220000E-01,+9.600000E+00
-1.349600E-03,+2.260000E-01,+9.600000E+00
-1.349200E-03,+2.300000E-01,+9.600000E+00
-1.348800E-03,+2.260000E-01,+9.600000E+00
-1.348400E-03,+2.220000E-01,+9.600000E+00
-1.348000E-03,+2.260000E-01,+9.600000E+00
-1.347600E-03,+2.220000E-01,+9.600000E+00
-1.347200E-03,+2.220000E-01,+9.600000E+00
-1.346800E-03,+2.260000E-01,+9.600000E+00
-1.346400E-03,+2.260000E-01,+9.600000E+00
-1.346000E-03,+2.260000E-01,+9.600000E+00
-1.345600E-03,+2.220000E-01,+9.600000E+00
-1.345200E-03,+2.260000E-01,+9.600000E+00
-1.344800E-03,+2.220000E-01,+9.400001E+00
-1.344400E-03,+2.220000E-01,+9.400001E+00
-1.344000E-03,+2.260000E-01,+9.400001E+00
-1.343600E-03,+2.220000E-01,+9.400001E+00
-1.343200E-03,+2.220000E-01,+9.400001E+00
-1.342800E-03,+2.220000E-01,+9.400001E+00
-1.342400E-03,+2.140000E-01,+9.200000E+00
-1.342000E-03,+2.180000E-01,+9.200000E+00
-1.341600E-03,+2.140000E-01,+9.200000E+00
-1.341200E-03,+2.180000E-01,+9.200000E+00
-1.340800E-03,+2.180000E-01,+9.200000E+00
-1.340400E-03,+2.180000E-01,+9.200000E+00
-1.340000E-03,+2.140000E-01,+9.000000E+00
-1.339600E-03,+2.100000E-01,+9.000000E+00
-1.339200E-03,+2.100000E-01,+9.000000E+00
-1.338800E-03,+2.140000E-01,+9.000000E+00
-1.338400E-03,+2.100000E-01,+8.800000E+00
-1.338000E-03,+2.140000E-01,+8.800000E+00
-1.337600E-03,+2.100000E-01,+8.800000E+00
-1.337200E-03,+2.100000E-01,+8.800000E+00
-1.336800E-03,+2.100000E-01,+8.800000E+00
-1.336400E-03,+2.100000E-01,+8.600000E+00
-1.336000E-03,+2.060000E-01,+8.600000E+00
-1.335600E-03,+2.060000E-01,+8.600000E+00
-1.335200E-03,+2.020000E-01,+8.400001E+00
-1.334800E-03,+2.060000E-01,+8.400001E+00
-1.334400E-03,+2.060000E-01,+8.400001E+00
-1.334000E-03,+1.980000E-01,+8.200000E+00
-1.333600E-03,+2.020000E-01,+8.200000E+00
-1.333200E-03,+2.020000E-01,+8.200000E+00
-1.332800E-03,+1.980000E-01,+8.200000E+00
-1.332400E-03,+1.940000E-01,+8.000000E+00
-1.332000E-03,+1.900000E-01,+8.000000E+00
-1.331600E-03,+1.900000E-01,+8.000000E+00
-1.331200E-03,+1.900000E-01,+7.800000E+00
-1.330800E-03,+1.940000E-01,+7.800000E+00
-1.330400E-03,+1.940000E-01,+7.800000E+00
-1.330000E-03,+1.900000E-01,+7.800000E+00
-1.329600E-03,+1.900000E-01,+7.600000E+00
-1.329200E-03,+1.860000E-01,+7.600000E+00
-1.328800E-03,+1.860000E-01,+7.400000E+00
-1.328400E-03,+1.860000E-01,+7.400000E+00
-1.328000E-03,+1.820000E-01,+7.200000E+00
-1.327600E-03,+1.820000E-01,+7.200000E+00
-1.327200E-03,+1.820000E-01,+7.400000E+00
-1.326800E-03,+1.780000E-01,+7.400000E+00
-1.326400E-03,+1.700000E-01,+7.000000E+00
-1.326000E-03,+1.740000E-01,+7.000000E+00
-1.325600E-03,+1.700000E-01,+6.800000E+00
-1.325200E-03,+1.700000E-01,+6.800000E+00
-1.324800E-03,+1.700000E-01,+6.800000E+00
-1.324400E-03,+1.700000E-01,+6.600000E+00
-1.324000E-03,+1.660000E-01,+6.600000E+00
-1.323600E-03,+1.660000E-01,+6.400000E+00
-1.323200E-03,+1.620000E-01,+6.400000E+00
-1.322800E-03,+1.580000E-01,+6.200000E+00
-1.322400E-03,+1.540000E-01,+6.200000E+00
-1.322000E-03,+1.580000E-01,+6.200000E+00
-1.321600E-03,+1.580000E-01,+6.000000E+00
-1.321200E-03,+1.540000E-01,+6.000000E+00
-1.320800E-03,+1.460000E-01,+5.800000E+00
-1.320400E-03,+1.500000E-01,+5.800000E+00
-1.320000E-03,+1.500000E-01,+5.600000E+00
-1.319600E-03,+1.420000E-01,+5.600000E+00
-1.319200E-03,+1.460000E-01,+5.600000E+00
-1.318800E-03,+1.420000E-01,+5.600000E+00
-1.318400E-03,+1.380000E-01,+5.400000E+00
-1.318000E-03,+1.380000E-01,+5.400000E+00
-1.317600E-03,+1.340000E-01,+5.200000E+00
-1.317200E-03,+1.340000E-01,+5.000000E+00
-1.316800E-03,+1.300000E-01,+5.000000E+00
-1.316400E-03,+1.300000E-01,+4.800000E+00
-1.316000E-03,+1.260000E-01,+4.800000E+00
-1.315600E-03,+1.180000E-01,+4.600000E+00
-1.315200E-03,+1.220000E-01,+4.600000E+00
-1.314800E-03,+1.180000E-01,+4.400000E+00
-1.314400E-03,+1.140000E-01,+4.400000E+00
-1.314000E-03,+1.140000E-01,+4.400000E+00
-1.313600E-03,+1.060000E-01,+4.200000E+00
-1.313200E-03,+1.100000E-01,+4.200000E+00
-1.312800E-03,+1.020000E-01,+4.000000E+00
-1.312400E-03,+9.800000E-02,+4.000000E+00
-1.312000E-03,+1.020000E-01,+3.800000E+00
-1.311600E-03,+9.400000E-02,+3.800000E+00
-1.311200E-03,+9.800000E-02,+3.600000E+00
-1.310800E-03,+9.000001E-02,+3.600000E+00
-1.310400E-03,+8.600001E-02,+3.400000E+00
-1.310000E-03,+8.600001E-02,+3.400000E+00
-1.309600E-03,+8.600001E-02,+3.200000E+00
-1.309200E-03,+8.200001E-02,+3.200000E+00
-1.308800E-03,+7.800001E-02,+3.200000E+00
-1.308400E-03,+7.400001E-02,+3.000000E+00
-1.308000E-03,+7.400001E-02,+2.800000E+00
-1.307600E-03,+7.400001E-02,+2.800000E+00
-1.307200E-03,+7.000001E-02,+2.600000E+00
-1.306800E-03,+5.800000E-02,+2.600000E+00
-1.306400E-03,+5.800000E-02,+2.600000E+00
-1.306000E-03,+5.800000E-02,+2.400000E+00
-1.305600E-03,+5.400000E-02,+2.600000E+00
-1.305200E-03,+5.000000E-02,+2.200000E+00
-1.304800E-03,+4.600000E-02,+2.000000E+00
-1.304400E-03,+5.000000E-02,+2.000000E+00
-1.304000E-03,+4.200000E-02,+2.000000E+00
-1.303600E-03,+3.800000E-02,+2.000000E+00
-1.303200E-03,+3.400000E-02,+1.800000E+00
-1.302800E-03,+3.400000E-02,+1.600000E+00
-1.302400E-03,+3.000000E-02,+1.400000E+00
-1.302000E-03,+3.000000E-02,+1.400000E+00
-1.301600E-03,+2.200000E-02,+1.200000E+00
-1.301200E-03,+1.800000E-02,+1.400000E+00
-1.300800E-03,+1.800000E-02,+1.200000E+00
-1.300400E-03,+1.400000E-02,+1.200000E+00
-1.300000E-03,+1.000000E-02,+1.000000E+00
-1.299600E-03,+1.000000E-02,+8.000000E-01
-1.299200E-03,+6.000000E-03,+8.000000E-01
-1.298800E-03,-2.000000E-03,+8.000000E-01
-1.298400E-03,-2.000000E-03,+6.000000E-01
-1.298000E-03,-6.000000E-03,+4.000000E-01
-1.297600E-03,-6.000000E-03,+4.000000E-01
-1.297200E-03,-1.400000E-02,+0.000000E+00
-1.296800E-03,-1.800000E-02,+0.000000E+00
-1.296400E-03,-1.800000E-02,+0.000000E+00
-1.296000E-03,-2.200000E-02,+0.000000E+00
-1.295600E-03,-2.600000E-02,-2.000000E-01
-1.295200E-03,-2.600000E-02,-4.000000E-01
-1.294800E-03,-3.400000E-02,-4.000000E-01
-1.294400E-03,-3.400000E-02,-6.000000E-01
-1.294000E-03,-4.200000E-02,-8.000000E-01
-1.293600E-03,-4.200000E-02,-1.000000E+00
-1.293200E-03,-4.200000E-02,-8.000000E-01
-1.292800E-03,-5.000000E-02,-1.000000E+00
-1.292400E-03,-5.400000E-02,-1.000000E+00
-1.292000E-03,-5.800000E-02,-1.400000E+00
-1.291600E-03,-5.800000E-02,-1.400000E+00
-1.291200E-03,-6.200000E-02,-1.600000E+00
-1.290800E-03,-6.200000E-02,-1.600000E+00
-1.290400E-03,-7.000000E-02,-1.800000E+00
-1.290000E-03,-7.000000E-02,-2.000000E+00
-1.289600E-03,-7.000000E-02,-2.000000E+00
-1.289200E-03,-7.400000E-02,-2.000000E+00
-1.288800E-03,-8.200000E-02,-2.200000E+00
-1.288400E-03,-8.200000E-02,-2.400000E+00
-1.288000E-03,-8.200000E-02,-2.600000E+00
-1.287600E-03,-9.000000E-02,-2.400000E+00
-1.287200E-03,-9.800000E-02,-2.800000E+00
-1.286800E-03,-1.020000E-01,-2.800000E+00
-1.286400E-03,-9.800000E-02,-2.800000E+00
-1.286000E-03,-1.060000E-01,-2.800000E+00
-1.285600E-03,-1.060000E-01,-3.200000E+00
-1.285200E-03,-1.060000E-01,-3.200000E+00
-1.284800E-03,-1.180000E-01,-3.200000E+00
-1.284400E-03,-1.140000E-01,-3.200000E+00
-1.284000E-03,-1.180000E-01,-3.400000E+00
-1.283600E-03,-1.220000E-01,-3.600000E+00
-1.283200E-03,-1.260000E-01,-3.800000E+00
-1.282800E-03,-1.260000E-01,-3.800000E+00
-1.282400E-03,-1.260000E-01,-4.200000E+00
-1.282000E-03,-1.340000E-01,-4.200000E+00
-1.281600E-03,-1.340000E-01,-4.400000E+00
-1.281200E-03,-1.380000E-01,-4.400000E+00
-1.280800E-03,-1.420000E-01,-4.400000E+00
-1.280400E-03,-1.380000E-01,-4.600000E+00
-1.280000E-03,-1.500000E-01,-4.600000E+00
-1.279600E-03,-1.500000E-01,-5.000000E+00
-1.279200E-03,-1.500000E-01,-5.000000E+00
-1.278800E-03,-1.580000E-01,-5.000000E+00
-1.278400E-03,-1.540000E-01,-5.200000E+00
-1.278000E-03,-1.580000E-01,-5.200000E+00
-1.277600E-03,-1.580000E-01,-5.200000E+00
-1.277200E-03,-1.660000E-01,-5.600000E+00
-1.276800E-03,-1.700000E-01,-5.600000E+00
-1.276400E-03,-1.700000E-01,-5.600000E+00
-1.276000E-03,-1.740000E-01,-6.000000E+00
-1.275600E-03,-1.740000E-01,-5.800000E+00
-1.275200E-03,-1.780000E-01,-6.000000E+00
-1.274800E-03,-1.780000E-01,-6.000000E+00
-1.274400E-03,-1.780000E-01,-6.200000E+00
-1.274000E-03,-1.820000E-01,-6.200000E+00
-1.273600E-03,-1.860000E-01,-6.600000E+00
-1.273200E-03,-1.860000E-01,-6.600000E+00
-1.272800E-03,-1.860000E-01,-6.600000E+00
-1.272400E-03,-1.860000E-01,-7.000000E+00
-1.272000E-03,-1.900000E-01,-6.800000E+00
-1.271600E-03,-1.900000E-01,-6.800000E+00
-1.271200E-03,-1.940000E-01,-7.200000E+00
-1.270800E-03,-1.980000E-01,-7.000000E+00
-1.270400E-03,-1.980000E-01,-7.200000E+00
-1.270000E-03,-2.020000E-01,-7.400000E+00
-1.269600E-03,-2.060000E-01,-7.400000E+00
-1.269200E-03,-2.020000E-01,-7.400000E+00
-1.268800E-03,-2.060000E-01,-7.800000E+00
-1.268400E-03,-1.980000E-01,-7.800000E+00
-1.268000E-03,-2.060000E-01,-7.800000E+00
-1.267600E-03,-2.100000E-01,-7.800000E+00
-1.267200E-03,-2.100000E-01,-7.800000E+00
-1.266800E-03,-2.100000E-01,-8.000000E+00
-1.266400E-03,-2.100000E-01,-8.000000E+00
-1.266000E-03,-2.140000E-01,-8.400001E+00
-1.265600E-03,-2.140000E-01,-8.400001E+00
-1.265200E-03,-2.140000E-01,-8.600000E+00
-1.264800E-03,-2.180000E-01,-8.400001E+00
-1.264400E-03,-2.180000E-01,-8.400001E+00
-1.264000E-03,-2.140000E-01,-8.400001E+00
-1.263600E-03,-2.220000E-01,-8.600000E+00
-1.263200E-03,-2.180000E-01,-8.600000E+00
-1.262800E-03,-2.180000E-01,-8.800000E+00
-1.262400E-03,-2.220000E-01,-8.800000E+00
-1.262000E-03,-2.220000E-01,-8.800000E+00
-1.261600E-03,-2.220000E-01,-8.800000E+00
-1.261200E-03,-2.220000E-01,-9.000000E+00
-1.260800E-03,-2.220000E-01,-9.000000E+00
-1.260400E-03,-2.260000E-01,-9.000000E+00
-1.260000E-03,-2.260000E-01,-9.200000E+00
-1.259600E-03,-2.260000E-01,-9.000000E+00
-1.259200E-03,-2.260000E-01,-9.200000E+00
-1.258800E-03,-2.260000E-01,-9.200000E+00
-1.258400E-03,-2.300000E-01,-9.200000E+00
-1.258000E-03,-2.260000E-01,-9.200000E+00
-1.257600E-03,-2.300000E-01,-9.400001E+00
-1.257200E-03,-2.300000E-01,-9.600000E+00
-1.256800E-03,-2.300000E-01,-9.400001E+00
-1.256400E-03,-2.300000E-01,-9.600000E+00
-1.256000E-03,-2.300000E-01,-9.400001E+00
-1.255600E-03,-2.300000E-01,-9.400001E+00
-1.255200E-03,-2.300000E-01,-9.600000E+00
-1.254800E-03,-2.300000E-01,-9.600000E+00
-1.254400E-03,-2.300000E-01,-9.600000E+00
-1.254000E-03,-2.300000E-01,-9.600000E+00
-1.253600E-03,-2.300000E-01,-9.800000E+00
-1.253200E-03,-2.300000E-01,-9.800000E+00
-1.252800E-03,-2.300000E-01,-9.600000E+00
-1.252400E-03,-2.300000E-01,-9.600000E+00
-1.252000E-03,-2.300000E-01,-9.800000E+00
-1.251600E-03,-2.300000E-01,-9.600000E+00
-1.251200E-03,-2.300000E-01,-9.600000E+00
-1.250800E-03,-2.300000E-01,-9.600000E+00
-1.250400E-03,-2.300000E-01,-9.600000E+00
-1.250000E-03,-2.300000E-01,-9.600000E+00
-1.249600E-03,-2.300000E-01,-9.600000E+00
-1.249200E-03,-2.260000E-01,-9.600000E+00
-1.248800E-03,-2.300000E-01,-9.600000E+00
-1.248400E-03,-2.300000E-01,-9.600000E+00
-1.248000E-03,-2.300000E-01,-9.600000E+00
-1.247600E-03,-2.260000E-01,-9.600000E+00
-1.247200E-03,-2.300000E-01,-9.600000E+00
-1.246800E-03,-2.300000E-01,-9.600000E+00
-1.246400E-03,-2.260000E-01,-9.600000E+00
-1.246000E-03,-2.260000E-01,-9.600000E+00
-1.245600E-03,-2.260000E-01,-9.600000E+00
-1.245200E-03,-2.260000E-01,-9.400001E+00
-1.244800E-03,-2.260000E-01,-9.400001E+00
-1.244400E-03,-2.260000E-01,-9.400001E+00
-1.244000E-03,-2.260000E-01,-9.600000E+00
-1.243600E-03,-2.220000E-01,-9.400001E+00
-1.243200E-03,-2.220000E-01,-9.600000E+00
-1.242800E-03,-2.180000E-01,-9.400001E+00
-1.242400E-03,-2.180000E-01,-9.400001E+00
-1.242000E-03,-2.220000E-01,-9.200000E+00
-1.241600E-03,-2.220000E-01,-9.200000E+00
-1.241200E-03,-2.180000E-01,-9.200000E+00
-1.240800E-03,-2.180000E-01,-9.400001E+00
-1.240400E-03,-2.180000E-01,-9.000000E+00
-1.240000E-03,-2.180000E-01,-9.000000E+00
-1.239600E-03,-2.180000E-01,-9.000000E+00
-1.239200E-03,-2.100000E-01,-9.000000E+00
-1.238800E-03,-2.140000E-01,-9.000000E+00
-1.238400E-03,-2.140000E-01,-8.800000E+00
-1.238000E-03,-2.100000E-01,-9.000000E+00
-1.237600E-03,-2.140000E-01,-8.800000E+00
-1.237200E-03,-2.100000E-01,-8.800000E+00
-1.236800E-03,-2.100000E-01,-8.600000E+00
-1.236400E-03,-2.100000E-01,-8.800000E+00
-1.236000E-03,-2.060000E-01,-8.600000E+00
-1.235600E-03,-2.060000E-01,-8.800000E+00
-1.235200E-03,-2.060000E-01,-8.400001E+00
-1.234800E-03,-2.060000E-01,-8.400001E+00
-1.234400E-03,-2.060000E-01,-8.400001E+00
-1.234000E-03,-2.020000E-01,-8.200000E+00
-1.233600E-03,-2.020000E-01,-8.200000E+00
-1.233200E-03,-2.020000E-01,-8.200000E+00
-1.232800E-03,-1.940000E-01,-8.000000E+00
-1.232400E-03,-1.980000E-01,-8.000000E+00
-1.232000E-03,-1.980000E-01,-8.000000E+00
-1.231600E-03,-1.940000E-01,-8.000000E+00
-1.231200E-03,-1.980000E-01,-7.800000E+00
-1.230800E-03,-1.900000E-01,-7.800000E+00
-1.230400E-03,-1.940000E-01,-7.600000E+00
-1.230000E-03,-1.900000E-01,-7.600000E+00
-1.229600E-03,-1.860000E-01,-7.600000E+00
-1.229200E-03,-1.900000E-01,-7.400000E+00
-1.228800E-03,-1.820000E-01,-7.400000E+00
-1.228400E-03,-1.860000E-01,-7.400000E+00
-1.228000E-03,-1.820000E-01,-7.400000E+00
-1.227600E-03,-1.820000E-01,-7.200000E+00
-1.227200E-03,-1.820000E-01,-7.200000E+00
-1.226800E-03,-1.780000E-01,-7.000000E+00
-1.226400E-03,-1.740000E-01,-7.200000E+00
-1.226000E-03,-1.740000E-01,-6.800000E+00
-1.225600E-03,-1.740000E-01,-6.800000E+00
-1.225200E-03,-1.740000E-01,-6.800000E+00
-1.224800E-03,-1.700000E-01,-6.800000E+00
-1.224400E-03,-1.700000E-01,-6.600000E+00
-1.224000E-03,-1.700000E-01,-6.400000E+00
-1.223600E-03,-1.660000E-01,-6.400000E+00
-1.223200E-03,-1.660000E-01,-6.600000E+00
-1.222800E-03,-1.620000E-01,-6.400000E+00
-1.222400E-03,-1.580000E-01,-6.200000E+00
-1.222000E-03,-1.580000E-01,-6.000000E+00
-1.221600E-03,-1.580000E-01,-6.200000E+00
-1.221200E-03,-1.500000E-01,-5.800000E+00
-1.220800E-03,-1.500000E-01,-5.800000E+00
-1.220400E-03,-1.460000E-01,-5.800000E+00
-1.220000E-03,-1.500000E-01,-5.600000E+00
-1.219600E-03,-1.460000E-01,-5.600000E+00
-1.219200E-03,-1.420000E-01,-5.600000E+00
-1.218800E-03,-1.420000E-01,-5.600000E+00
-1.218400E-03,-1.340000E-01,-5.200000E+00
-1.218000E-03,-1.380000E-01,-5.200000E+00
-1.217600E-03,-1.380000E-01,-5.200000E+00
-1.217200E-03,-1.300000E-01,-5.000000E+00
-1.216800E-03,-1.300000E-01,-5.000000E+00
-1.216400E-03,-1.260000E-01,-5.000000E+00
-1.216000E-03,-1.220000E-01,-4.800000E+00
-1.215600E-03,-1.260000E-01,-4.600000E+00
-1.215200E-03,-1.220000E-01,-4.600000E+00
-1.214800E-03,-1.140000E-01,-4.400000E+00
-1.214400E-03,-1.180000E-01,-4.400000E+00
-1.214000E-03,-1.100000E-01,-4.200000E+00
-1.213600E-03,-1.140000E-01,-4.200000E+00
